%!PS-Adobe-3.0 EPSF-3.0
%%Creator: cairo 1.15.12 (http://cairographics.org)
%%CreationDate: Mon Jul  1 15:32:08 2024
%%Pages: 1
%%DocumentData: Clean7Bit
%%LanguageLevel: 2
%%BoundingBox: 0 0 650 651
%%EndComments
%%BeginProlog
50 dict begin
/q { gsave } bind def
/Q { grestore } bind def
/cm { 6 array astore concat } bind def
/w { setlinewidth } bind def
/J { setlinecap } bind def
/j { setlinejoin } bind def
/M { setmiterlimit } bind def
/d { setdash } bind def
/m { moveto } bind def
/l { lineto } bind def
/c { curveto } bind def
/h { closepath } bind def
/re { exch dup neg 3 1 roll 5 3 roll moveto 0 rlineto
      0 exch rlineto 0 rlineto closepath } bind def
/S { stroke } bind def
/f { fill } bind def
/f* { eofill } bind def
/n { newpath } bind def
/W { clip } bind def
/W* { eoclip } bind def
/BT { } bind def
/ET { } bind def
/BDC { mark 3 1 roll /BDC pdfmark } bind def
/EMC { mark /EMC pdfmark } bind def
/cairo_store_point { /cairo_point_y exch def /cairo_point_x exch def } def
/Tj { show currentpoint cairo_store_point } bind def
/TJ {
  {
    dup
    type /stringtype eq
    { show } { -0.001 mul 0 cairo_font_matrix dtransform rmoveto } ifelse
  } forall
  currentpoint cairo_store_point
} bind def
/cairo_selectfont { cairo_font_matrix aload pop pop pop 0 0 6 array astore
    cairo_font exch selectfont cairo_point_x cairo_point_y moveto } bind def
/Tf { pop /cairo_font exch def /cairo_font_matrix where
      { pop cairo_selectfont } if } bind def
/Td { matrix translate cairo_font_matrix matrix concatmatrix dup
      /cairo_font_matrix exch def dup 4 get exch 5 get cairo_store_point
      /cairo_font where { pop cairo_selectfont } if } bind def
/Tm { 2 copy 8 2 roll 6 array astore /cairo_font_matrix exch def
      cairo_store_point /cairo_font where { pop cairo_selectfont } if } bind def
/g { setgray } bind def
/rg { setrgbcolor } bind def
/d1 { setcachedevice } bind def
/cairo_data_source {
  CairoDataIndex CairoData length lt
    { CairoData CairoDataIndex get /CairoDataIndex CairoDataIndex 1 add def }
    { () } ifelse
} def
/cairo_flush_ascii85_file { cairo_ascii85_file status { cairo_ascii85_file flushfile } if } def
/cairo_image { image cairo_flush_ascii85_file } def
/cairo_imagemask { imagemask cairo_flush_ascii85_file } def
%%EndProlog
%%BeginSetup
%%EndSetup
%%Page: 1 1
%%BeginPageSetup
%%PageBoundingBox: 0 0 650 651
%%EndPageSetup
q 0 0 650 651 rectclip
1 0 0 -1 0 651 cm q
0 g
304.266 0.406 m 288.562 1.504 270.164 3.906 259.766 6.305 c 257.562 6.805
 254.164 7.504 252.266 7.906 c 243.766 9.605 224.965 15.004 222.062 16.504
 c 221.062 17.004 219.465 17.406 218.465 17.406 c 217.465 17.406 216.266
 17.805 215.766 18.305 c 215.164 18.707 211.363 20.406 207.266 21.906 c 
190.965 28.004 161.363 42.504 156.164 47.004 c 155.363 47.805 154.266 48.406
 153.863 48.406 c 153.062 48.406 133.164 61.906 129.363 64.906 c 128.465
 65.707 123.766 69.504 118.766 73.504 c 113.863 77.504 103.266 87.305 95.266
 95.305 c 81.766 108.805 76.363 114.805 67.164 126.406 c 62.062 132.805 
48.863 152.207 46.363 156.906 c 45.266 159.105 42.965 163.105 41.266 165.906
 c 36.266 174.305 26.766 194.406 22.766 204.906 c 20.664 210.406 18.562 
215.305 18.164 215.805 c 17.664 216.406 17.266 217.605 17.266 218.605 c 
17.266 219.605 16.863 221.207 16.363 222.207 c 13.766 227.105 7.863 250.406
 4.164 270.906 c -2.438 306.805 -1.035 362.504 7.266 395.406 c 7.766 397.305
 8.863 402.004 9.766 405.906 c 10.664 409.707 12.266 415.605 13.363 418.906
 c 14.465 422.207 15.766 426.504 16.363 428.406 c 24.562 455.406 44.363 
492.906 64.766 520.406 c 68.363 525.305 71.863 529.906 72.562 530.605 c 
73.266 531.305 76.062 534.605 78.766 537.906 c 87.363 548.207 108.266 568.504
 118.164 576.406 c 120.664 578.305 124.363 581.406 126.562 583.105 c 128.664
 584.906 135.664 589.805 142.062 594.105 c 169.766 612.305 197.766 626.004
 224.766 634.504 c 228.664 635.707 232.664 637.004 233.766 637.504 c 234.863
 637.906 236.863 638.504 238.266 638.707 c 239.664 639.004 243.664 640.004
 247.266 640.906 c 266.965 645.906 281.465 648.004 306.562 649.504 c 340.766
 651.504 377.965 647.906 408.766 639.406 c 413.164 638.207 417.965 636.906
 419.562 636.707 c 421.062 636.406 422.562 635.805 422.863 635.305 c 423.164
 634.805 424.266 634.406 425.363 634.406 c 426.363 634.406 428.062 634.004
 429.062 633.504 c 429.965 633.004 434.164 631.406 438.266 629.906 c 442.363
 628.406 446.664 626.805 447.766 626.305 c 448.863 625.906 453.863 623.707
 458.766 621.605 c 469.863 616.707 487.266 607.504 493.465 603.305 c 494.863
 602.207 496.363 601.406 496.664 601.406 c 497.965 601.406 520.363 585.605
 529.766 578.105 c 548.766 562.906 576.766 533.207 590.266 513.906 c 610.062
 485.305 626.266 453.207 634.266 426.406 c 635.465 422.305 636.863 418.004
 637.266 416.906 c 639.965 410.605 643.863 391.406 648.164 364.406 c 649.863
 353.504 650.562 317.207 649.363 301.406 c 647.062 272.707 643.863 255.707
 635.363 226.906 c 632.863 218.406 629.562 209.605 625.363 200.207 c 624.164
 197.605 623.266 195.207 623.266 194.805 c 623.266 193.305 609.062 166.004
 603.863 157.406 c 591.465 137.105 580.766 122.805 566.266 107.004 c 552.465
 92.004 537.164 77.707 526.766 69.906 c 524.562 68.207 522.164 66.305 521.363
 65.605 c 520.562 64.805 512.266 59.207 502.863 53.004 c 482.965 39.906 
473.363 34.707 451.266 25.105 c 433.363 17.305 408.164 9.707 385.766 5.504
 c 382.465 4.805 377.863 3.906 375.465 3.406 c 373.164 2.805 369.465 2.406
 367.363 2.406 c 365.266 2.406 361.363 2.004 358.664 1.504 c 351.363 0.207
 318.465 -0.496 304.266 0.406 c h
357.766 26.305 m 375.363 28.305 389.465 30.906 402.766 34.605 c 408.664
 36.207 433.465 44.305 435.766 45.305 c 436.863 45.805 440.664 47.504 444.266
 49.004 c 451.266 52.105 466.266 59.605 472.766 63.305 c 474.965 64.605 
478.766 66.805 481.266 68.207 c 485.562 70.605 501.266 81.207 502.266 82.406
 c 502.562 82.707 505.465 84.906 508.766 87.305 c 522.062 97.305 540.363
 114.504 551.766 127.906 c 555.062 131.707 557.965 135.105 558.266 135.406
 c 560.863 138.004 581.266 166.707 581.266 167.805 c 581.266 168.004 583.164
 171.305 585.465 175.004 c 589.562 181.805 601.664 206.707 604.164 213.406
 c 604.863 215.305 605.863 217.805 606.266 218.906 c 606.664 220.004 607.562
 222.504 608.266 224.406 c 608.965 226.305 609.863 228.805 610.266 229.906
 c 613.766 238.207 619.664 263.406 622.266 280.406 c 625.562 302.504 626.062
 346.207 623.266 364.406 c 619.863 386.906 612.965 415.105 608.363 425.906
 c 607.863 427.004 605.363 433.207 602.766 439.707 c 594.164 461.305 579.562
 487.305 566.664 504.004 c 564.562 506.805 561.465 510.805 559.766 513.004
 c 547.664 528.707 528.965 546.906 504.062 566.805 c 501.062 569.207 480.965
 582.504 475.164 585.805 c 470.664 588.504 448.465 599.406 447.664 599.406
 c 447.465 599.406 445.062 600.305 442.465 601.504 c 439.863 602.707 436.863
 603.906 435.766 604.406 c 434.664 604.805 432.664 605.605 431.266 606.207
 c 428.266 607.605 411.164 613.305 406.266 614.605 c 319.863 637.504 231.863
 623.605 159.766 575.906 c 150.465 569.707 141.766 563.805 140.664 562.805
 c 139.465 561.707 136.766 559.504 134.664 557.906 c 121.062 547.207 102.363
 528.207 90.363 512.906 c 86.965 508.504 83.562 504.207 82.965 503.406 c
 79.266 498.805 68.363 482.004 62.863 472.406 c 58.363 464.605 49.062 445.004
 45.266 435.406 c 26.465 388.105 20.266 335.406 27.363 283.406 c 28.766 
273.504 30.965 260.906 32.363 255.906 c 32.965 253.707 33.766 250.504 34.164
 248.906 c 35.664 243.406 37.465 236.906 38.266 234.406 c 39.562 230.605
 44.363 217.105 45.266 214.906 c 45.766 213.805 46.965 210.906 47.863 208.406
 c 50.164 202.805 61.664 180.004 66.562 171.605 c 69.863 165.906 84.863 
143.605 86.164 142.406 c 86.562 142.105 89.465 138.504 92.766 134.406 c 
99.363 126.105 122.766 102.207 131.164 95.305 c 144.965 84.004 158.562 74.305
 172.766 65.906 c 179.363 62.004 204.664 49.406 209.766 47.406 c 210.863
 47.004 212.863 46.207 214.266 45.605 c 217.766 44.105 229.965 39.805 234.766
 38.305 c 236.965 37.707 239.664 36.805 240.766 36.305 c 241.863 35.906 
244.164 35.305 245.766 34.906 c 247.465 34.605 250.363 33.906 252.266 33.406
 c 254.164 32.906 260.062 31.605 265.266 30.605 c 274.164 28.805 280.363
 27.906 299.266 25.504 c 307.863 24.406 345.965 24.906 357.766 26.305 c 
h
357.766 26.305 m f
295.766 38.504 m 293.562 38.906 289.863 39.305 287.562 39.305 c 285.164
 39.406 281.363 39.805 279.062 40.406 c 276.664 40.906 272.062 41.906 268.766
 42.504 c 265.465 43.207 257.562 45.004 251.266 46.707 c 244.965 48.305 
238.766 49.906 237.465 50.105 c 236.266 50.406 234.965 51.004 234.664 51.504
 c 234.363 52.004 233.363 52.406 232.465 52.406 c 226.863 52.406 188.664
 70.305 173.664 80.004 c 169.062 83.004 165.062 85.406 164.766 85.406 c 
164.465 85.406 163.465 86.004 162.562 86.805 c 161.562 87.605 156.965 91.105
 152.266 94.504 c 147.562 98.004 143.562 101.105 143.266 101.406 c 142.965
 101.707 139.664 104.605 135.766 107.906 c 105.062 134.207 76.363 173.406
 60.766 210.504 c 55.562 223.004 55.062 224.305 53.266 229.406 c 52.562 
231.305 51.664 233.805 51.266 234.906 c 49.965 238.207 46.465 250.504 44.766
 257.906 c 41.266 273.207 40.863 275.605 38.266 294.906 c 36.965 305.305
 36.965 345.305 38.363 356.305 c 44.164 402.707 58.766 443.805 82.766 481.406
 c 85.363 485.504 87.965 489.105 88.363 489.207 c 88.863 489.406 89.266 
490.004 89.266 490.504 c 89.266 491.105 93.562 497.004 98.965 503.707 c 
109.766 517.406 130.965 539.004 142.266 548.004 c 146.363 551.207 149.965
 554.207 150.266 554.504 c 151.363 555.805 170.363 568.504 178.766 573.605
 c 187.062 578.605 197.465 583.906 209.766 589.406 c 214.863 591.707 238.363
 600.004 243.766 601.406 c 245.465 601.906 249.266 602.906 252.266 603.707
 c 262.164 606.305 279.766 609.707 291.863 611.406 c 302.363 612.805 347.465
 612.805 357.266 611.406 c 376.266 608.605 387.863 606.504 398.266 603.707
 c 401.266 602.906 405.164 601.906 406.766 601.406 c 412.062 600.004 428.664
 594.207 437.766 590.605 c 444.062 588.105 469.062 575.207 476.766 570.406
 c 506.965 552.004 541.266 519.605 560.465 491.406 c 561.465 490.004 563.562
 487.004 565.266 484.605 c 566.863 482.305 568.266 480.105 568.266 479.906
 c 568.266 479.605 569.863 476.906 571.965 473.707 c 575.766 467.805 587.562
 444.805 590.465 437.906 c 601.363 411.105 606.562 391.406 611.465 358.406
 c 613.062 346.906 613.062 303.504 611.363 291.906 c 608.562 272.605 606.266
 261.004 601.266 242.906 c 594.863 219.004 581.266 190.305 564.562 165.207
 c 550.863 144.605 536.062 127.305 518.664 111.805 c 510.164 104.207 510.062
 104.105 500.266 96.305 c 484.863 83.906 451.863 65.004 433.266 57.906 c
 430.766 56.906 427.863 55.805 426.766 55.305 c 423.863 54.105 409.266 49.305
 405.766 48.406 c 404.164 48.004 399.363 46.707 395.266 45.707 c 383.664
 42.605 376.766 41.305 356.562 38.406 c 348.164 37.207 301.562 37.207 295.766
 38.504 c h
353.266 40.805 m 365.766 41.805 386.465 45.406 392.562 47.707 c 395.164
 48.605 395.363 49.105 394.965 52.305 c 394.266 56.906 393.164 61.504 389.766
 73.906 c 386.863 84.805 385.664 89.305 384.766 93.906 c 384.363 95.504 
383.766 97.805 383.266 98.906 c 382.766 100.004 382.164 102.504 381.863 
104.406 c 380.863 109.906 380.363 110.305 374.766 109.207 c 372.062 108.707
 365.266 107.605 359.766 106.805 c 354.266 105.906 348.766 105.004 347.562
 104.805 c 345.363 104.406 345.266 103.805 345.164 96.105 c 345.062 87.105
 343.562 89.504 343.363 99.207 c 343.266 104.406 l 325.062 104.207 l 306.766
 103.906 l 306.562 99.906 l 306.465 97.707 305.863 90.906 305.363 84.906
 c 304.465 75.906 302.965 56.906 301.965 43.504 c 301.766 41.707 302.363
 40.805 304.266 40.305 c 306.965 39.504 341.164 39.906 353.266 40.805 c 
h
253.562 52.105 m 254.465 56.305 255.664 61.406 259.766 76.906 c 261.766
 84.605 263.664 92.004 263.965 93.406 c 264.164 94.805 264.766 96.805 265.266
 97.906 c 266.062 99.707 266.465 101.406 267.863 108.504 c 268.363 110.805
 267.965 111.207 264.062 112.406 c 261.766 113.105 254.863 115.504 248.766
 117.605 c 242.766 119.805 236.965 121.805 236.062 122.105 c 234.266 122.605
 233.965 122.105 226.562 105.504 c 225.766 103.504 223.465 98.605 221.664
 94.707 c 219.766 90.707 218.266 87.207 218.266 87.004 c 218.266 86.504 
210.562 69.504 209.266 67.207 c 208.664 66.207 208.266 65.207 208.266 64.906
 c 208.266 63.707 231.164 54.805 243.266 51.406 c 245.766 50.707 248.266
 50.004 248.766 49.906 c 251.766 49.004 253.062 49.605 253.562 52.105 c 
h
294.664 60.305 m 295.266 63.105 295.266 65.207 294.664 66.207 c 293.863
 67.305 294.062 68.207 295.363 69.504 c 296.465 70.605 297.266 73.707 297.766
 78.305 c 298.562 86.805 297.164 89.406 291.664 89.406 c 287.863 89.406 
284.266 85.605 284.266 81.504 c 284.266 80.105 283.863 77.504 283.363 75.707
 c 282.863 74.004 282.164 69.207 281.766 65.004 c 281.062 57.504 l 284.266
 55.504 l 287.164 53.805 287.965 53.707 290.664 54.805 c 293.164 55.805 
293.965 56.906 294.664 60.305 c h
277.766 59.707 m 279.863 62.805 279.562 70.605 277.062 77.906 c 274.465
 85.605 274.965 87.605 279.164 86.406 c 281.766 85.707 282.266 85.906 282.863
 87.605 c 283.766 90.504 282.465 91.207 275.766 91.605 c 269.766 91.906 
l 269.465 88.605 l 269.266 86.805 270.062 82.406 271.164 78.906 c 273.266
 72.504 273.766 69.105 273.465 64.105 c 273.164 59.805 271.266 61.906 271.266
 66.504 c 271.266 70.004 270.965 70.406 268.863 70.406 c 266.664 70.406 
266.266 69.805 265.664 65.906 c 265.164 62.305 265.363 60.906 266.766 59.406
 c 269.766 56.004 275.266 56.207 277.766 59.707 c h
410.266 68.004 m 410.266 69.305 409.863 71.207 409.266 72.207 c 408.363
 73.805 400.266 97.105 400.266 98.105 c 400.266 98.305 399.266 98.406 398.062
 98.207 c 394.664 97.707 394.766 95.504 398.664 84.605 c 402.363 74.305 
402.965 71.406 401.266 71.406 c 398.863 71.406 400.562 68.406 404.062 66.707
 c 408.562 64.406 410.266 64.805 410.266 68.004 c h
455.863 71.004 m 464.266 75.406 481.664 85.805 484.062 87.906 c 484.363
 88.207 460.465 124.105 457.562 127.906 c 457.062 128.406 455.465 130.906
 453.766 133.406 c 448.266 141.805 448.664 141.605 443.965 138.406 c 439.164
 135.207 435.766 133.305 425.266 127.805 c 421.164 125.707 417.562 123.805
 417.363 123.707 c 417.164 123.605 418.164 121.004 419.664 117.906 c 421.062
 114.805 422.266 112.105 422.266 111.805 c 422.266 111.605 423.766 108.105
 425.664 104.105 c 428.965 97.207 432.766 88.707 435.965 81.406 c 440.465
 71.305 443.363 65.406 444.062 65.406 c 444.562 65.406 449.766 67.906 455.863
 71.004 c h
420.766 69.406 m 421.062 69.906 422.363 70.406 423.664 70.406 c 426.363
 70.406 428.266 72.207 428.266 74.605 c 428.266 76.605 426.164 76.906 423.363
 75.504 c 420.863 74.105 419.562 75.406 418.766 79.707 c 418.062 83.207 
418.164 83.406 420.562 83.406 c 424.863 83.406 424.664 88.504 419.965 99.605
 c 418.363 103.504 414.965 104.707 410.863 103.004 c 406.664 101.305 405.766
 98.605 407.465 93.707 c 408.965 89.207 409.863 88.504 412.465 89.207 c 
413.863 89.504 414.266 90.207 413.863 91.805 c 412.164 97.707 412.062 98.406
 413.164 98.406 c 414.363 98.406 417.266 92.105 417.266 89.305 c 417.266
 88.105 416.562 87.406 415.363 87.406 c 411.266 87.406 410.766 84.805 413.266
 77.105 c 414.562 73.105 415.766 69.605 415.965 69.105 c 416.562 68.105 
420.062 68.207 420.766 69.406 c h
206.062 82.605 m 206.266 83.504 205.062 85.004 203.465 86.004 c 200.465
 87.707 200.465 87.707 202.164 91.004 c 203.766 94.305 205.562 95.305 206.766
 93.406 c 207.863 91.605 211.766 92.406 213.164 94.605 c 213.965 95.906 
215.965 99.305 217.562 102.305 c 220.965 108.504 220.465 111.207 215.266
 113.906 c 212.465 115.305 211.863 115.406 209.863 114.105 c 208.664 113.305
 206.863 111.004 205.766 109.004 c 203.766 105.305 203.766 105.305 205.766
 103.805 c 207.562 102.504 207.863 102.504 208.965 104.105 c 212.062 108.707
 213.164 109.805 213.863 109.105 c 214.562 108.504 211.266 101.305 209.164
 99.004 c 208.664 98.406 207.562 98.707 206.562 99.605 c 202.863 102.707
 202.465 102.504 198.266 95.406 c 195.965 91.504 194.266 87.605 194.465 
86.805 c 194.766 85.105 203.164 80.207 204.766 80.707 c 205.266 80.906 205.863
 81.805 206.062 82.605 c h
182.863 115.805 m 200.062 141.105 200.465 141.805 198.465 143.305 c 197.363
 144.207 194.062 146.707 191.164 148.906 c 188.266 151.105 183.863 154.707
 181.363 156.906 c 171.562 165.504 173.062 165.105 168.062 160.207 c 153.664
 145.605 129.766 120.004 129.465 118.805 c 129.062 117.305 136.562 110.105
 146.562 102.105 c 149.965 99.504 153.465 96.707 154.363 96.004 c 157.965
 93.004 163.766 89.406 164.465 89.605 c 164.863 89.805 173.164 101.605 182.863
 115.805 c h
195.062 94.707 m 196.863 97.707 198.062 100.805 197.766 101.605 c 197.363
 102.504 197.766 103.406 198.664 103.707 c 201.062 104.605 205.363 112.207
 205.465 115.605 c 205.664 120.305 199.363 124.207 195.766 121.605 c 193.465
 120.105 190.062 114.305 190.664 112.906 c 191.664 110.305 195.062 111.207
 196.863 114.504 c 197.965 116.707 198.766 117.305 199.465 116.605 c 200.965
 115.105 196.664 108.504 193.562 107.305 c 191.465 106.504 191.164 106.004
 191.766 103.406 c 192.266 101.207 191.863 99.605 190.266 97.406 c 187.562
 93.605 185.562 94.504 187.863 98.406 c 191.164 103.906 187.062 106.707 
183.363 101.504 c 179.266 95.707 182.062 89.504 188.766 89.406 c 191.465
 89.406 192.266 90.105 195.062 94.707 c h
351.766 108.605 m 354.562 109.105 359.664 109.906 363.266 110.504 c 371.363
 111.805 378.164 113.504 378.766 114.406 c 378.965 114.707 377.965 119.305
 376.562 124.504 c 375.164 129.707 373.664 135.504 373.266 137.406 c 372.766
 139.305 371.863 142.707 371.266 144.906 c 370.664 147.105 369.766 150.504
 369.363 152.406 c 367.863 159.207 366.164 164.305 365.465 164.707 c 365.062
 165.004 361.363 164.504 357.266 163.707 c 353.164 163.004 347.562 162.004
 344.766 161.605 c 339.766 160.906 l 339.766 156.605 l 339.766 151.207 338.465
 151.105 338.062 156.605 c 337.766 160.707 l 325.062 160.805 l 312.465 160.906
 l 311.863 157.906 l 310.664 151.805 307.465 109.305 308.062 108.105 c 308.562
 107.004 344.965 107.504 351.766 108.605 c h
498.465 114.105 m 500.863 116.305 500.766 117.105 497.562 120.906 c 491.363
 128.207 488.766 132.004 488.766 133.906 c 488.766 134.906 487.766 136.305
 486.465 137.004 c 485.266 137.605 483.062 139.105 481.766 140.406 c 477.266
 144.605 474.062 140.305 478.363 135.707 c 480.562 133.504 l 477.363 130.504
 l 473.766 127.105 473.562 127.406 480.965 121.605 c 483.266 119.906 485.562
 118.406 486.164 118.406 c 486.664 118.406 487.266 118.105 487.465 117.605
 c 488.062 116.305 493.664 112.504 495.164 112.406 c 495.965 112.406 497.465
 113.105 498.465 114.105 c h
273.164 127.906 m 274.965 135.105 276.766 142.406 276.965 144.207 c 277.266
 146.004 277.863 147.707 278.363 148.004 c 278.863 148.305 279.266 149.605
 279.266 151.004 c 279.266 152.406 279.664 154.305 280.164 155.207 c 280.664
 156.105 281.266 158.906 281.664 161.406 c 282.363 165.906 l 277.562 167.305
 l 274.863 168.105 269.664 170.004 265.766 171.605 c 261.965 173.207 258.363
 174.305 257.664 174.004 c 257.062 173.805 256.266 172.406 255.863 171.105
 c 255.562 169.707 253.062 163.805 250.266 157.906 c 247.562 152.004 245.266
 147.004 245.266 146.805 c 245.266 146.305 238.664 131.906 237.062 129.004
 c 236.363 127.707 236.465 126.805 237.465 125.906 c 239.965 123.605 265.465
 114.305 268.266 114.707 c 269.266 114.906 270.766 119.004 273.164 127.906
 c h
532.266 128.805 m 536.766 133.406 543.465 141.105 547.363 145.906 c 554.363
 154.605 l 550.664 157.207 l 548.664 158.504 546.266 160.305 545.363 161.004
 c 544.465 161.707 537.266 167.105 529.266 173.004 c 521.266 178.906 512.266
 185.707 509.062 188.105 c 505.965 190.406 503.164 192.406 502.863 192.406
 c 502.562 192.406 500.266 189.805 497.766 186.605 c 495.164 183.504 490.266
 178.004 486.863 174.406 c 479.266 166.406 478.863 165.707 480.465 164.004
 c 485.863 158.504 516.363 126.504 518.766 123.805 c 520.465 121.906 522.363
 120.406 523.062 120.406 c 523.664 120.406 527.863 124.207 532.266 128.805
 c h
423.965 130.504 m 437.664 137.805 445.266 142.805 445.266 144.605 c 445.266
 146.105 421.062 182.707 417.664 186.406 c 416.363 187.707 415.863 187.605
 413.465 186.105 c 411.965 185.207 407.062 182.305 402.562 179.805 c 397.965
 177.305 394.266 175.004 394.266 174.805 c 394.266 173.906 399.266 162.406
 403.766 152.906 c 406.266 147.707 408.266 143.207 408.266 143.004 c 408.266
 140.906 415.562 127.406 416.664 127.406 c 417.465 127.406 420.766 128.805
 423.965 130.504 c h
132.562 136.504 m 135.766 138.207 141.266 143.605 141.266 145.105 c 141.266
 145.805 141.965 146.406 142.863 146.406 c 145.062 146.406 152.363 152.504
 153.363 155.207 c 155.266 160.105 149.664 165.605 144.562 164.004 c 142.062
 163.207 135.266 156.504 135.266 154.805 c 135.266 154.004 134.465 153.406
 133.562 153.406 c 131.266 153.406 123.266 146.004 123.266 143.805 c 123.266
 141.504 126.363 136.504 128.164 136.105 c 129.062 135.805 129.863 135.605
 130.062 135.504 c 130.266 135.504 131.363 135.906 132.562 136.504 c h
204.766 148.105 m 206.062 149.707 207.266 151.207 207.266 151.605 c 207.266
 151.906 212.664 160.105 219.266 169.805 c 225.863 179.406 231.266 188.004
 231.266 188.805 c 231.266 189.504 230.664 190.406 229.965 190.707 c 229.266
 191.004 224.664 194.504 219.863 198.406 c 214.766 202.707 210.766 205.305
 210.363 204.605 c 210.062 204.105 204.863 198.504 198.766 192.207 c 192.766
 185.906 184.863 177.707 181.266 173.906 c 174.766 167.105 l 180.266 162.105
 l 185.562 157.305 200.965 145.406 201.863 145.406 c 202.164 145.406 203.465
 146.605 204.766 148.105 c h
125.164 151.004 m 127.863 153.406 129.965 156.707 131.863 161.504 c 135.266
 170.207 136.863 171.707 139.266 168.605 c 141.363 166.004 144.266 165.707
 144.266 168.004 c 144.266 170.305 138.363 177.406 136.465 177.406 c 133.766
 177.406 129.863 171.906 126.965 163.906 c 125.062 159.004 123.266 155.805
 121.664 154.707 c 118.164 152.406 117.465 153.906 120.562 157.207 c 122.562
 159.305 122.863 160.305 122.164 161.605 c 120.664 164.305 118.766 163.805
 115.363 159.805 c 111.863 155.906 111.863 153.605 115.562 149.605 c 118.363
 146.504 120.664 146.805 125.164 151.004 c h
104.363 162.605 m 108.965 166.004 112.965 169.105 113.266 169.406 c 113.562
 169.707 115.062 170.805 116.562 171.707 c 118.164 172.707 120.164 174.105
 121.062 174.906 c 121.965 175.605 127.766 179.906 133.766 184.406 c 139.863
 188.906 145.164 193.004 145.562 193.406 c 146.266 194.004 141.164 202.707
 136.562 208.906 c 136.062 209.406 134.164 212.906 132.266 216.605 c 130.363
 220.305 128.266 223.605 127.664 223.805 c 127.062 224.004 122.562 222.207
 117.664 219.707 c 112.766 217.207 100.664 211.105 90.766 206.207 c 80.863
 201.207 72.266 196.707 71.562 196.207 c 70.266 195.207 72.465 190.707 81.766
 175.406 c 88.363 164.504 94.062 156.406 95.164 156.406 c 95.664 156.406
 99.766 159.207 104.363 162.605 c h
349.766 165.406 m 351.965 165.906 356.465 166.805 359.766 167.406 c 392.664
 174.105 429.062 196.305 449.465 222.207 c 452.363 225.906 454.965 229.105
 455.363 229.406 c 455.766 229.707 458.062 233.004 460.465 236.906 c 471.766
 254.504 476.965 267.004 483.266 291.105 c 486.363 303.305 487.363 330.707
 485.266 347.105 c 482.266 369.605 473.266 393.504 460.266 413.406 c 456.766
 418.605 453.766 423.105 453.363 423.406 c 453.062 423.707 451.465 425.605
 449.965 427.605 c 446.465 432.406 432.266 446.605 427.465 450.105 c 425.465
 451.605 423.562 453.105 423.266 453.406 c 422.465 454.305 414.363 459.805
 408.164 463.707 c 393.863 472.605 372.766 480.605 354.766 484.004 c 342.363
 486.305 307.465 486.605 297.766 484.504 c 294.465 483.707 290.062 482.906
 287.965 482.707 c 285.965 482.406 283.965 481.805 283.664 481.305 c 283.363
 480.805 281.863 480.406 280.363 480.406 c 278.863 480.406 277.266 480.004
 276.766 479.605 c 276.164 479.105 273.766 478.105 271.266 477.406 c 264.863
 475.504 250.062 468.504 241.062 463.105 c 215.363 447.805 192.266 422.105
 178.465 393.207 c 174.766 385.504 168.266 366.207 168.266 363.004 c 168.266
 361.805 167.863 360.406 167.363 359.805 c 166.465 358.906 166.062 356.105
 164.363 337.906 c 160.863 301.605 170.664 265.305 192.664 232.906 c 198.266
 224.707 217.363 204.207 224.766 198.504 c 250.766 178.605 278.965 167.305
 309.766 164.504 c 319.664 163.504 343.465 164.105 349.766 165.406 c h
489.062 181.406 m 498.465 191.906 500.363 195.105 498.363 196.406 c 496.363
 197.605 482.465 207.707 469.863 217.105 c 463.766 221.707 458.266 225.406
 457.664 225.406 c 457.062 225.406 454.164 222.605 451.164 219.105 c 448.266
 215.707 444.562 211.707 443.062 210.105 c 441.562 208.605 440.266 207.004
 440.266 206.605 c 440.363 205.906 449.965 195.605 467.062 178.105 c 478.164
 166.805 475.664 166.406 489.062 181.406 c h
557.465 181.906 m 560.562 185.504 559.766 188.207 554.562 191.406 c 551.266
 193.504 548.664 194.406 545.664 194.406 c 543.363 194.406 539.164 194.906
 536.363 195.605 c 531.266 196.707 l 533.164 200.004 l 534.863 202.805 534.863
 203.504 533.766 204.406 c 531.863 206.004 530.965 205.207 527.363 199.406
 c 525.164 195.805 524.664 194.305 525.562 193.707 c 529.164 191.305 531.863
 190.406 534.766 190.406 c 539.266 190.406 548.363 188.605 551.062 187.207
 c 552.266 186.605 553.266 185.504 553.266 184.707 c 553.266 183.605 552.766
 183.605 550.266 184.906 c 546.062 187.105 544.266 186.805 544.266 184.004
 c 544.266 182.207 545.266 181.207 548.562 179.605 c 553.062 177.504 553.965
 177.707 557.465 181.906 c h
158.863 202.906 m 163.766 206.504 168.863 210.406 170.266 211.406 c 172.562
 213.207 180.965 219.406 185.965 223.004 c 192.266 227.605 191.965 227.004
 189.766 230.707 c 180.562 246.305 178.664 249.305 177.766 249.406 c 175.766
 249.504 131.363 226.906 131.266 225.707 c 131.266 223.605 147.965 196.504
 149.363 196.406 c 149.664 196.406 153.965 199.305 158.863 202.906 c h
584.164 204.707 m 586.062 208.605 588.363 213.906 589.266 216.406 c 590.164
 218.906 591.465 222.207 592.164 223.906 c 595.266 231.305 597.363 238.605
 596.965 239.805 c 596.664 240.605 593.766 242.004 590.562 242.906 c 578.562
 246.605 568.664 249.605 566.266 250.406 c 564.863 250.805 560.363 252.207
 556.266 253.406 c 552.164 254.605 547.863 256.004 546.766 256.406 c 537.664
 259.707 535.266 259.707 535.266 256.305 c 535.266 255.207 534.863 253.605
 534.363 252.605 c 533.863 251.707 533.062 249.805 532.465 248.406 c 531.965
 247.004 529.664 241.504 527.465 236.207 c 524.363 228.605 523.766 226.207
 524.766 225.406 c 526.363 224.105 578.465 197.605 579.766 197.504 c 580.363
 197.504 582.266 200.707 584.164 204.707 c h
82.965 211.504 m 84.465 212.207 87.164 213.305 88.766 214.004 c 90.465 
214.707 94.266 216.207 97.266 217.406 c 105.863 220.707 107.266 222.004 
107.266 225.906 c 107.266 232.406 101.062 235.406 95.965 231.406 c 94.562
 230.305 92.465 229.406 91.363 229.406 c 89.465 229.406 83.965 227.305 77.266
 224.105 c 73.766 222.305 73.266 216.105 76.363 212.805 c 78.965 210.004
 79.164 210.004 82.965 211.504 c h
88.766 235.605 m 95.062 242.105 95.664 242.504 96.965 240.805 c 97.664 
239.805 98.266 238.406 98.266 237.605 c 98.266 236.805 99.164 236.406 100.562
 236.605 c 102.266 236.805 102.664 237.406 102.363 239.406 c 101.863 243.305
 98.863 248.805 97.266 249.207 c 95.164 249.605 89.465 245.004 85.164 239.605
 c 83.363 237.207 80.062 234.406 78.062 233.305 c 73.562 231.004 73.266 
231.004 73.266 232.906 c 73.266 233.707 73.863 234.406 74.664 234.406 c 
75.465 234.406 76.965 235.207 78.164 236.105 c 80.062 237.707 80.164 238.105
 78.965 239.707 c 77.766 241.406 77.363 241.504 74.062 240.105 c 67.363 
237.305 65.863 231.406 70.965 227.504 c 74.863 224.406 80.465 226.906 88.766
 235.605 c h
523.062 233.605 m 524.664 237.105 527.664 244.406 529.766 249.805 c 533.664
 260.406 533.664 260.805 528.266 262.004 c 526.863 262.305 524.863 262.906
 523.766 263.406 c 522.664 263.805 519.766 264.707 517.266 265.406 c 514.766
 266.105 511.863 267.004 510.766 267.406 c 509.664 267.805 507.164 268.605
 505.266 269.207 c 503.363 269.805 497.863 271.504 493.062 272.906 c 488.266
 274.406 483.766 275.406 482.965 275.105 c 482.062 274.805 481.164 273.004
 480.766 271.207 c 480.363 269.406 479.164 265.906 478.062 263.406 c 476.965
 260.906 475.363 257.406 474.562 255.504 c 473.562 253.406 473.363 251.906
 474.062 251.207 c 474.766 250.504 518.266 228.004 519.863 227.406 c 519.965
 227.406 521.363 230.207 523.062 233.605 c h
63.766 245.504 m 67.664 246.707 71.664 248.004 72.766 248.406 c 73.863 
248.805 78.863 250.406 83.766 251.906 c 88.766 253.406 93.863 255.004 95.266
 255.406 c 96.664 255.906 101.164 257.305 105.266 258.504 c 109.363 259.707
 112.863 260.805 112.965 260.805 c 113.062 260.906 112.465 263.406 111.562
 266.406 c 109.465 274.105 108.465 278.707 106.965 287.605 c 106.164 291.906
 105.465 295.605 105.164 295.805 c 104.965 296.004 100.062 295.504 94.266
 294.707 c 88.465 294.004 80.164 292.906 75.766 292.406 c 71.363 291.906
 64.164 291.004 59.766 290.406 c 55.363 289.805 49.664 289.105 47.062 288.707
 c 41.465 288.004 41.363 287.805 43.766 274.906 c 45.664 264.906 48.465 
252.305 49.562 249.406 c 49.863 248.605 50.363 246.605 50.766 245.105 c 
51.465 241.805 51.062 241.805 63.766 245.504 c h
586.965 256.906 m 591.664 259.805 591.266 261.906 585.562 263.305 c 577.363
 265.406 573.965 266.207 568.766 267.305 c 557.062 269.707 557.465 269.707
 556.266 267.305 c 554.863 264.707 555.965 263.707 561.266 262.906 c 563.164
 262.605 566.164 261.906 567.863 261.406 c 569.562 260.805 571.766 260.406
 572.766 260.406 c 576.062 260.406 581.363 258.004 580.863 256.805 c 580.562
 256.105 580.863 255.305 581.562 255.004 c 582.965 254.504 582.965 254.406
 586.965 256.906 c h
124.562 264.305 m 127.965 265.406 134.863 267.504 139.766 268.906 c 144.766
 270.406 149.664 272.004 150.766 272.406 c 151.863 272.805 156.062 274.207
 160.062 275.406 c 164.562 276.707 167.266 278.004 166.965 278.707 c 166.562
 279.805 163.965 291.805 162.465 299.406 c 161.664 303.406 161.164 303.504
 146.266 301.504 c 128.766 299.105 122.562 298.406 116.465 297.707 c 112.164
 297.305 109.863 296.605 109.562 295.605 c 108.766 293.605 114.164 266.105
 115.965 263.105 c 116.562 262.004 117.664 262.207 124.562 264.305 c h
592.562 271.504 m 593.062 273.406 593.562 276.504 593.664 278.406 c 593.766
 281.906 l 583.766 282.207 l 578.266 282.406 570.465 282.207 566.562 281.906
 c 559.266 281.207 559.266 281.207 559.266 278.305 c 559.266 275.504 559.465
 275.305 562.562 275.805 c 568.164 276.707 587.164 277.605 588.164 277.004
 c 588.562 276.707 588.664 274.605 588.266 272.504 c 587.766 269.805 587.965
 268.305 588.664 268.004 c 590.766 267.207 591.664 268.004 592.562 271.504
 c h
610.164 309.504 m 610.863 320.305 611.266 330.805 610.863 332.906 c 610.164
 336.707 l 595.965 335.906 l 588.164 335.504 573.863 334.906 564.266 334.504
 c 546.766 333.906 l 546.062 318.406 l 545.664 309.906 545.266 301.805 545.062
 300.406 c 544.766 297.707 545.664 297.406 561.062 295.406 c 565.562 294.906
 572.965 293.906 577.562 293.406 c 582.062 292.805 590.266 291.707 595.766
 291.004 c 601.266 290.207 606.465 289.707 607.266 289.805 c 608.465 289.906
 609.062 293.504 610.164 309.504 c h
541.664 300.004 m 542.863 303.004 543.664 332.105 542.562 332.707 c 541.363
 333.504 493.363 331.707 490.965 330.906 c 489.465 330.305 489.266 328.605
 489.266 317.406 c 489.266 304.707 l 494.062 304.105 l 496.664 303.805 504.363
 302.805 511.266 301.906 c 525.266 300.004 535.664 298.805 538.863 298.504
 c 540.062 298.504 541.363 299.105 541.664 300.004 c h
72.863 303.305 m 77.062 305.504 81.062 307.004 81.863 306.707 c 82.664 
306.406 83.266 304.906 83.266 303.305 c 83.266 301.105 83.766 300.406 85.266
 300.406 c 87.062 300.406 87.266 301.105 87.266 306.805 c 87.266 310.406
 86.863 313.504 86.465 313.805 c 85.562 314.406 77.266 312.504 75.766 311.305
 c 72.363 308.707 63.062 304.406 60.965 304.406 c 56.664 304.406 56.863 
306.305 61.266 307.004 c 64.664 307.605 65.266 308.004 65.266 310.004 c 
65.266 312.207 64.863 312.406 60.562 312.406 c 55.062 312.406 52.266 310.305
 52.266 306.207 c 52.266 301.004 54.164 299.406 60.062 299.406 c 64.266 
299.406 66.863 300.207 72.863 303.305 c h
69.562 317.707 m 71.863 318.906 73.965 320.105 74.266 320.406 c 75.766 
321.906 80.266 323.504 81.164 323.004 c 81.766 322.605 82.266 321.004 82.266
 319.305 c 82.266 316.906 82.664 316.406 84.766 316.406 c 87.062 316.406
 87.266 316.805 87.266 320.605 c 87.266 327.707 86.465 329.406 83.164 329.406
 c 80.562 329.406 71.465 325.906 70.266 324.406 c 69.062 322.906 62.164 
320.406 59.266 320.406 c 54.766 320.406 55.965 322.805 60.664 323.207 c 
64.766 323.605 66.363 325.707 64.164 327.906 c 63.164 328.906 61.664 329.004
 58.465 328.406 c 52.965 327.406 52.266 326.707 52.062 321.906 c 51.766 
314.207 59.363 312.406 69.562 317.707 c h
160.664 334.605 m 160.965 335.906 161.363 339.605 161.664 342.906 c 161.965
 346.207 162.465 351.207 162.863 354.105 c 163.465 359.004 163.363 359.305
 161.164 359.805 c 152.664 361.406 146.363 362.707 143.766 363.406 c 142.164
 363.805 138.266 364.707 135.266 365.305 c 132.266 365.906 126.664 367.105
 122.965 367.906 c 111.863 370.305 111.664 370.305 110.465 363.605 c 108.465
 353.207 107.062 340.906 107.363 337.906 c 107.766 334.906 l 128.562 334.207
 l 140.062 333.906 149.562 333.406 149.766 333.207 c 149.965 333.105 152.363
 332.805 155.164 332.605 c 159.766 332.305 160.266 332.504 160.664 334.605
 c h
104.863 346.906 m 105.465 352.906 106.562 360.805 107.164 364.305 c 107.766
 367.906 108.062 370.805 107.965 370.906 c 107.863 371.004 105.266 371.605
 102.266 372.305 c 99.266 372.906 94.965 373.906 92.766 374.406 c 90.562
 374.906 83.164 376.504 76.266 377.906 c 56.465 382.004 53.863 382.605 51.465
 383.504 c 47.363 385.105 45.465 384.605 44.863 381.605 c 43.363 374.105
 42.164 365.605 40.766 353.004 c 39.562 341.805 39.465 338.906 40.465 338.207
 c 41.164 337.805 44.664 337.406 48.266 337.305 c 51.863 337.207 62.863 
336.805 72.766 336.406 c 82.664 336.004 93.664 335.805 97.266 335.805 c 
103.766 335.906 l h
581.965 350.906 m 587.562 351.707 593.062 352.906 594.266 353.605 c 596.766
 355.207 596.965 360.906 594.562 363.605 c 592.465 365.906 583.766 366.207
 582.863 363.906 c 582.465 362.707 581.863 362.605 579.766 363.605 c 576.965
 364.906 564.965 363.207 562.562 361.207 c 560.965 359.906 560.863 354.004
 562.266 351.305 c 563.562 348.906 567.664 348.906 581.965 350.906 c h
497.766 363.004 m 502.164 363.906 507.363 365.004 509.266 365.406 c 517.164
 367.207 523.965 368.707 527.766 369.504 c 537.863 371.605 537.465 371.305
 536.965 375.305 c 536.266 380.207 535.266 384.504 534.363 386.906 c 533.863
 388.004 532.562 392.004 531.266 395.906 c 530.062 399.707 528.664 403.406
 528.062 404.105 c 527.164 405.207 520.863 403.305 510.266 398.707 c 508.363
 397.906 505.766 396.805 504.562 396.305 c 503.266 395.805 501.266 395.004
 500.062 394.504 c 498.766 394.004 496.164 392.906 494.266 392.105 c 492.363
 391.305 488.965 390.004 486.766 389.305 c 478.062 386.406 478.164 386.805
 481.965 375.305 c 483.766 369.707 485.266 364.406 485.266 363.406 c 485.266
 361.207 486.266 360.305 488.164 360.805 c 489.062 361.105 493.363 362.004
 497.766 363.004 c h
550.766 374.406 m 554.062 375.105 558.562 376.004 560.766 376.504 c 564.465
 377.305 568.562 378.207 578.766 380.305 c 591.863 383.004 602.465 385.406
 603.266 385.906 c 604.562 386.707 600.664 402.605 595.562 416.906 c 594.164
 420.707 592.863 424.906 592.562 426.105 c 591.562 430.605 590.164 430.605
 577.664 425.805 c 571.164 423.305 563.965 420.406 561.766 419.406 c 559.562
 418.406 555.062 416.605 551.766 415.406 c 548.465 414.105 544.164 412.504
 542.266 411.707 c 536.562 409.305 534.863 408.605 533.062 408.004 c 531.062
 407.406 530.766 405.305 532.266 402.605 c 533.562 400.207 537.766 387.105
 539.266 380.406 c 541.164 372.207 541.164 372.207 542.965 372.805 c 543.965
 373.105 547.465 373.805 550.766 374.406 c h
94.062 385.707 m 94.266 387.406 93.965 388.406 93.164 388.406 c 91.766 
388.406 76.363 393.004 72.465 394.504 c 70.965 395.105 70.266 396.004 70.664
 396.906 c 71.363 398.906 69.465 399.805 66.965 398.605 c 65.766 398.004
 63.965 397.305 63.062 397.004 c 61.965 396.707 61.266 395.504 61.266 394.105
 c 61.266 392.207 62.062 391.605 66.062 390.504 c 74.965 388.004 86.766 
384.305 88.766 383.406 c 91.965 382.004 93.766 382.707 94.062 385.707 c 
h
173.363 389.504 m 173.766 390.305 175.465 393.805 177.164 397.406 c 178.766
 401.004 180.965 405.105 181.863 406.504 c 182.766 408.004 183.363 409.805
 183.062 410.504 c 182.766 411.305 176.062 415.906 168.164 420.805 c 160.266
 425.707 150.664 431.605 146.965 434.004 c 143.164 436.305 139.562 438.105
 138.965 437.805 c 137.863 437.406 130.562 425.004 129.164 421.406 c 128.863
 420.605 127.465 417.305 125.965 414.105 c 124.465 410.906 123.266 408.004
 123.266 407.605 c 123.266 407.207 124.766 406.305 126.562 405.605 c 128.266
 404.805 130.664 403.906 131.766 403.406 c 149.465 396.004 170.863 387.605
 171.664 387.805 c 172.164 387.906 172.965 388.707 173.363 389.504 c h
98.562 399.605 m 100.965 404.004 100.363 405.707 96.062 408.406 c 91.766
 411.004 87.863 410.707 87.465 407.605 c 87.164 405.805 87.664 405.305 90.164
 404.805 c 93.363 404.105 94.965 402.805 93.863 401.707 c 92.562 400.406
 85.562 403.504 84.266 405.906 c 82.863 408.504 80.863 409.207 79.766 407.406
 c 78.965 406.105 76.164 406.105 72.664 407.406 c 70.863 408.105 70.266 
408.805 70.965 409.504 c 71.562 410.105 72.863 410.105 74.562 409.504 c 
76.766 408.605 77.465 408.805 78.766 410.605 c 80.664 413.504 79.562 414.504
 73.863 415.105 c 70.266 415.504 68.766 415.305 67.266 413.906 c 63.465 
410.504 65.664 402.406 70.363 402.406 c 71.363 402.406 72.465 401.906 72.766
 401.406 c 73.562 400.105 78.562 400.105 79.965 401.504 c 80.766 402.305
 81.266 402.004 81.766 400.504 c 82.164 399.207 83.965 398.004 87.062 397.004
 c 94.164 394.805 96.363 395.305 98.562 399.605 c h
122.266 413.605 m 124.664 419.207 129.562 429.207 133.266 436.105 c 135.863
 440.805 135.465 441.605 129.266 444.707 c 126.266 446.207 120.164 450.004
 100.766 462.207 c 86.465 471.305 82.664 473.406 81.465 473.207 c 79.562
 472.805 66.863 449.105 62.164 437.207 c 60.266 432.406 l 65.062 430.305
 l 67.664 429.105 70.766 427.805 72.062 427.305 c 73.266 426.805 75.266 
426.004 76.562 425.504 c 77.766 425.004 83.465 422.707 89.266 420.406 c 
95.062 418.105 101.164 415.605 102.766 414.906 c 107.465 412.906 118.664
 408.504 119.363 408.406 c 119.664 408.406 120.965 410.805 122.266 413.605
 c h
469.266 414.207 m 469.266 414.707 470.965 415.906 473.062 417.105 c 477.863
 419.707 502.965 435.004 506.562 437.605 c 508.062 438.707 509.266 440.105
 509.266 440.707 c 509.266 442.707 496.863 460.504 491.562 466.105 c 490.965
 466.805 489.863 467.406 489.266 467.406 c 488.266 467.406 477.465 458.605
 473.266 454.406 c 472.465 453.504 466.965 448.605 461.062 443.504 c 455.062
 438.305 450.266 433.707 450.266 433.207 c 450.266 432.504 458.266 421.504
 460.965 418.707 c 461.562 418.004 462.465 416.504 462.766 415.406 c 463.164
 414.004 464.266 413.406 466.363 413.406 c 467.965 413.406 469.266 413.805
 469.266 414.207 c h
554.863 428.906 m 564.465 433.707 565.766 434.105 566.766 432.707 c 568.164
 430.805 570.266 431.805 570.266 434.406 c 570.266 435.406 570.766 436.605
 571.266 436.906 c 572.465 437.605 572.664 442.105 571.562 442.707 c 570.965
 443.105 541.664 429.105 540.465 427.906 c 539.863 427.305 542.266 423.406
 543.266 423.406 c 543.766 423.406 548.965 425.906 554.863 428.906 c h
546.562 437.004 m 548.664 437.805 548.863 442.207 546.766 443.004 c 545.965
 443.305 544.363 442.906 543.062 442.004 c 540.363 440.105 539.266 440.004
 539.266 441.707 c 539.266 443.707 546.164 446.707 547.766 445.406 c 549.465
 444.004 551.965 445.105 552.664 447.707 c 553.363 450.207 559.863 453.906
 560.766 452.406 c 561.164 451.805 560.062 450.605 558.363 449.605 c 554.965
 447.707 554.465 446.305 556.766 444.406 c 558.562 442.906 561.363 443.805
 564.562 447.004 c 566.664 449.105 566.965 450.004 566.266 452.504 c 564.965
 456.906 563.465 458.406 560.164 458.406 c 556.863 458.406 554.062 457.004
 550.062 453.504 c 548.562 452.207 545.965 451.004 544.266 450.906 c 542.562
 450.707 539.465 449.406 537.266 448.004 c 532.766 445.004 531.965 441.504
 535.062 437.805 c 537.766 434.406 538.965 434.305 546.562 437.004 c h
206.664 439.605 m 208.965 442.004 212.965 445.805 215.664 448.207 c 221.266
 453.004 221.164 453.707 214.965 460.406 c 212.363 463.305 205.664 471.406
 194.562 485.406 c 189.766 491.504 187.965 493.406 186.965 493.406 c 185.465
 493.406 167.062 476.406 164.266 472.406 c 162.266 469.605 l 167.363 464.707
 l 173.664 458.805 172.562 459.906 185.766 448.406 c 191.863 443.207 197.664
 438.105 198.664 437.207 c 201.465 434.707 202.062 434.906 206.664 439.605
 c h
522.562 447.406 m 526.863 450.207 530.562 452.406 530.863 452.406 c 531.062
 452.406 535.863 455.305 541.363 458.906 c 546.863 462.504 551.562 465.406
 551.863 465.406 c 552.363 465.406 560.465 470.504 561.266 471.406 c 561.562
 471.707 562.965 472.504 564.562 473.305 c 566.062 474.105 567.266 475.207
 567.266 475.707 c 567.266 476.207 565.965 478.605 564.266 481.105 c 562.664
 483.504 561.266 485.707 561.266 485.906 c 561.266 486.207 560.664 487.207
 559.863 488.105 c 559.062 489.105 555.766 493.504 552.465 497.906 c 549.164
 502.305 544.965 507.605 543.062 509.605 c 539.766 513.406 l 534.664 508.605
 l 531.965 506.004 528.062 502.504 526.062 500.906 c 522.664 498.004 515.164
 491.406 502.863 480.504 c 499.465 477.605 495.766 474.105 494.562 472.707
 c 492.266 470.305 l 497.562 463.605 l 500.562 459.906 504.465 454.605 506.266
 451.906 c 508.164 449.105 509.965 446.707 510.465 446.605 c 510.863 446.406
 511.266 445.605 511.266 444.906 c 511.266 443.805 512.465 442.805 514.266
 442.504 c 514.562 442.406 518.266 444.707 522.562 447.406 c h
430.266 456.207 m 439.965 467.805 461.266 494.605 461.266 495.207 c 461.266
 496.207 441.465 510.305 436.465 512.805 c 432.465 514.906 431.562 514.305
 428.266 507.707 c 426.965 505.004 425.164 501.805 424.266 500.406 c 423.266
 499.004 420.965 495.004 419.062 491.406 c 417.164 487.805 413.664 481.707
 411.363 477.707 c 409.164 473.707 407.266 469.805 407.266 469.105 c 407.266
 468.406 408.465 467.105 410.062 466.305 c 411.562 465.504 413.266 464.605
 413.766 464.105 c 422.164 457.906 426.965 454.504 427.766 454.504 c 428.363
 454.406 429.465 455.207 430.266 456.207 c h
128.664 460.004 m 131.766 464.605 130.465 467.305 121.766 474.105 c 117.363
 477.504 113.363 480.305 112.965 480.305 c 112.562 480.406 111.266 481.305
 110.062 482.406 c 106.465 485.805 102.062 484.605 99.363 479.605 c 98.664
 478.406 98.465 476.406 98.766 475.305 c 99.164 474.207 104.266 469.707 
110.062 465.406 c 122.062 456.406 125.664 455.406 128.664 460.004 c h
138.062 472.805 m 139.766 475.207 141.266 477.805 141.266 478.707 c 141.266
 480.707 132.863 483.906 125.164 484.805 c 119.664 485.504 113.266 488.504
 113.266 490.406 c 113.266 492.004 115.164 491.605 118.465 489.305 c 121.266
 487.207 121.465 487.207 122.766 489.004 c 124.863 491.805 124.664 492.105
 119.664 495.004 c 114.363 498.105 111.465 497.504 108.965 492.605 c 105.965
 486.504 112.164 481.406 124.863 479.406 c 133.465 478.004 134.863 477.004
 132.664 473.707 c 130.965 471.105 131.363 468.406 133.465 468.406 c 134.164
 468.406 136.266 470.406 138.062 472.805 c h
253.562 473.504 m 256.965 475.207 260.562 477.004 261.465 477.504 c 262.465
 478.004 263.766 478.406 264.465 478.406 c 265.164 478.406 266.465 479.004
 267.363 479.707 c 268.863 480.805 268.863 481.406 267.562 485.406 c 266.766
 487.906 265.766 490.805 265.266 491.906 c 264.363 493.906 258.062 511.906
 255.965 518.406 c 255.363 520.305 254.465 522.305 254.062 522.805 c 253.664
 523.406 253.266 524.504 253.266 525.406 c 253.266 526.305 252.664 527.805
 251.965 528.707 c 250.863 530.305 250.363 530.305 244.266 527.906 c 240.664
 526.406 233.562 523.305 228.562 520.805 c 219.363 516.406 l 220.465 513.605
 l 221.164 512.105 222.465 509.707 223.465 508.207 c 224.465 506.805 225.266
 505.305 225.266 505.004 c 225.266 504.805 226.766 501.906 228.664 498.707
 c 230.465 495.504 233.465 490.207 235.266 486.906 c 237.062 483.605 239.863
 478.504 241.465 475.605 c 243.062 472.805 245.062 470.406 245.863 470.406
 c 246.664 470.406 250.164 471.805 253.562 473.504 c h
163.965 476.605 m 166.164 479.004 171.664 484.406 176.062 488.707 c 180.562
 492.906 184.266 496.805 184.266 497.305 c 184.266 497.805 182.766 500.004
 181.062 502.105 c 176.965 506.906 174.363 510.105 159.164 528.906 c 152.465
 537.105 146.863 544.504 146.562 545.105 c 145.766 547.105 144.363 546.707
 140.363 543.305 c 135.062 538.805 111.266 515.105 111.266 514.406 c 111.266
 514.004 117.266 508.605 124.562 502.305 c 131.766 496.105 138.465 490.305
 139.266 489.406 c 140.062 488.605 143.965 485.207 147.766 481.906 c 151.664
 478.605 155.465 475.105 156.266 474.207 c 158.465 471.605 159.465 471.906
 163.965 476.605 c h
381.266 485.605 m 381.965 488.004 382.965 490.305 383.465 490.805 c 383.863
 491.406 384.266 492.605 384.266 493.605 c 384.266 494.605 384.664 496.207
 385.266 497.207 c 385.766 498.105 386.863 500.906 387.664 503.406 c 388.465
 505.906 390.766 512.406 392.766 517.906 c 394.766 523.406 396.664 528.707
 396.965 529.605 c 397.363 530.906 396.266 531.605 392.062 532.906 c 381.863
 536.004 367.965 539.406 365.266 539.406 c 362.766 539.406 362.465 539.004
 361.863 534.605 c 361.465 532.004 360.766 527.406 360.266 524.406 c 359.664
 521.406 358.863 516.207 358.266 512.906 c 357.664 509.605 356.766 504.406
 356.266 501.406 c 355.664 498.406 354.965 494.105 354.664 491.906 c 354.062
 487.906 l 358.863 486.605 l 361.562 485.906 365.562 484.805 367.766 484.207
 c 369.965 483.605 372.863 482.805 374.266 482.406 c 379.062 480.805 379.863
 481.207 381.266 485.605 c h
313.266 489.207 m 323.766 489.906 l 324.266 495.406 l 324.562 498.406 324.562
 510.305 324.266 521.906 c 323.766 542.906 l 320.266 543.305 l 314.062 543.906
 290.062 541.105 289.562 539.707 c 289.164 538.605 290.164 531.406 293.266
 513.406 c 293.766 510.906 294.363 507.105 294.664 504.906 c 295.465 499.805
 297.363 490.305 297.863 488.504 c 298.164 487.605 299.062 487.406 300.562
 487.906 c 301.766 488.305 307.465 488.906 313.266 489.207 c h
498.465 492.305 m 498.664 492.805 502.266 496.906 506.562 501.406 c 512.863
 507.906 514.664 509.305 515.766 508.406 c 517.965 506.504 519.062 508.105
 519.062 512.906 c 518.863 521.406 517.363 520.805 504.766 507.805 c 498.465
 501.207 493.363 495.406 493.266 494.805 c 493.266 492.406 497.664 490.207
 498.465 492.305 c h
470.266 505.605 m 473.266 509.406 476.266 513.105 476.766 513.707 c 478.266
 515.406 489.363 529.207 491.766 532.305 c 492.863 533.707 494.766 536.004
 496.062 537.406 c 500.062 541.605 503.465 547.207 502.766 548.406 c 501.164
 551.004 477.164 567.805 469.062 572.004 c 465.863 573.605 465.863 573.605
 463.562 570.805 c 462.266 569.207 461.266 567.605 461.266 567.207 c 461.266
 566.805 459.266 563.004 456.766 558.805 c 454.266 554.707 452.266 551.105
 452.266 550.906 c 452.266 550.805 448.664 544.207 444.164 536.406 c 433.266
 517.105 433.562 518.207 438.465 515.305 c 448.863 509.105 450.062 508.305
 458.562 501.707 c 460.863 499.906 463.266 498.406 463.766 498.504 c 464.363
 498.504 467.266 501.707 470.266 505.605 c h
494.465 511.605 m 501.363 518.906 503.465 520.605 504.164 519.504 c 505.863
 516.805 508.062 519.906 507.664 524.504 c 507.164 532.105 505.965 531.707
 495.465 520.906 c 490.164 515.406 484.766 509.605 483.465 508.004 c 481.363
 505.305 481.363 505.004 482.965 503.805 c 483.965 503.105 484.965 502.406
 485.266 502.406 c 485.465 502.406 489.664 506.605 494.465 511.605 c h
185.965 518.605 m 188.965 521.406 188.863 524.004 185.766 528.707 c 182.863
 532.805 182.062 533.105 180.164 530.805 c 179.164 529.504 179.164 528.805
 180.562 526.406 c 182.562 523.004 182.766 521.305 180.965 522.004 c 178.965
 522.707 175.965 529.004 176.664 531.207 c 177.363 533.305 175.062 536.004
 173.363 535.004 c 172.863 534.605 171.266 536.004 169.766 538.105 c 166.766
 542.605 168.363 544.004 171.766 539.805 c 173.766 537.305 174.266 537.105
 175.664 538.305 c 177.863 540.105 177.664 541.105 174.664 545.105 c 172.863
 547.406 171.363 548.406 169.363 548.406 c 165.863 548.406 162.266 545.105
 162.266 541.805 c 162.266 538.707 167.766 530.406 169.766 530.406 c 170.562
 530.406 171.266 529.504 171.266 528.305 c 171.266 523.605 177.266 516.406
 181.164 516.406 c 182.465 516.406 184.664 517.406 185.965 518.605 c h
227.562 523.805 m 232.664 526.207 239.266 529.207 242.266 530.406 c 250.664
 533.707 250.562 533.406 247.164 543.207 c 245.465 548.004 243.766 552.805
 243.266 553.906 c 242.363 556.004 242.363 556.207 236.766 572.406 c 234.766
 578.207 232.766 583.805 232.266 584.906 c 231.863 586.004 230.965 588.406
 230.266 590.105 c 228.766 594.004 228.164 594.105 220.562 591.305 c 213.062
 588.504 186.266 575.605 186.266 574.805 c 186.266 574.406 188.465 570.305
 191.164 565.504 c 193.863 560.805 197.164 554.906 198.465 552.406 c 202.164
 545.707 205.164 540.605 206.664 538.105 c 208.266 535.406 214.164 524.805
 215.664 521.707 c 216.266 520.406 217.164 519.406 217.562 519.406 c 217.965
 519.406 222.465 521.406 227.562 523.805 c h
198.965 527.605 m 201.863 530.305 201.863 533.207 199.164 537.805 c 196.863
 541.707 195.266 542.305 193.266 539.906 c 192.266 538.707 192.465 537.707
 194.164 534.906 c 196.562 530.805 196.664 530.406 195.266 530.406 c 193.562
 530.406 189.164 538.004 189.863 539.805 c 190.664 541.805 188.562 544.504
 186.766 543.805 c 185.164 543.207 180.062 550.207 180.965 551.707 c 181.266
 552.305 182.766 551.207 184.266 549.305 c 186.664 546.406 187.266 546.207
 188.664 547.305 c 189.562 548.004 190.266 549.207 190.266 549.906 c 190.266
 552.305 185.164 557.406 182.766 557.406 c 179.465 557.406 175.266 553.707
 175.266 550.805 c 175.266 547.707 180.766 539.406 182.766 539.406 c 183.664
 539.406 184.266 538.406 184.266 537.105 c 184.266 535.906 185.863 532.805
 187.766 530.105 c 191.766 524.707 195.062 523.906 198.965 527.605 c h
399.363 537.105 m 401.266 541.906 407.363 558.707 408.863 563.406 c 409.664
 565.906 410.766 568.805 411.266 569.906 c 411.766 571.004 413.266 575.504
 414.766 579.906 c 416.164 584.305 417.863 588.906 418.465 590.105 c 419.062
 591.305 419.266 592.906 418.965 593.707 c 418.062 596.004 391.062 603.805
 379.562 605.105 c 374.363 605.605 l 373.766 601.805 l 373.465 599.605 372.766
 595.906 372.266 593.406 c 371.363 588.805 370.062 581.105 368.266 570.105
 c 366.562 560.207 365.266 553.207 364.164 548.605 c 363.062 543.504 363.562
 542.406 366.766 542.406 c 369.465 542.406 386.062 538.305 392.664 535.906
 c 398.164 534.004 398.164 534.004 399.363 537.105 c h
428.766 541.605 m 431.562 542.906 436.766 552.707 435.863 555.004 c 435.562
 555.805 436.363 557.504 437.766 558.805 c 439.062 560.105 440.664 563.004
 441.363 565.207 c 442.363 568.707 442.363 569.707 440.863 571.906 c 439.363
 574.105 438.562 574.504 434.965 574.207 c 431.266 573.906 430.562 573.504
 428.562 569.906 c 427.363 567.707 426.363 564.504 426.363 562.805 c 426.266
 560.906 425.664 559.406 424.766 559.004 c 422.664 558.305 419.062 549.707
 419.465 546.504 c 419.664 544.605 422.863 541.605 425.965 540.504 c 426.062
 540.406 427.363 540.906 428.766 541.605 c h
313.562 546.004 m 324.266 546.605 l 324.266 610.707 l 309.562 610.004 l
 294.664 609.305 278.965 607.504 277.766 606.207 c 277.363 605.906 277.766
 602.004 278.562 597.707 c 279.363 593.406 280.562 586.707 281.164 582.906
 c 282.664 573.605 284.164 565.805 285.266 560.605 c 285.863 558.305 286.266
 555.105 286.266 553.504 c 286.266 552.004 286.766 549.207 287.363 547.406
 c 288.562 544.207 l 295.664 544.805 l 299.562 545.207 307.562 545.707 313.562
 546.004 c h
256.562 555.504 m 256.465 556.305 256.062 558.105 255.664 559.504 c 255.164
 561.805 255.465 562.207 258.465 563.004 c 263.164 564.406 262.766 567.105
 256.266 578.207 c 251.562 586.105 250.363 587.406 248.164 587.406 c 243.766
 587.406 242.965 585.406 244.863 578.805 c 247.766 568.207 248.062 566.406
 247.562 564.406 c 247.266 563.406 247.965 561.207 249.164 559.504 c 250.363
 557.906 251.266 555.906 251.266 555.207 c 251.266 554.406 251.562 553.504
 251.863 553.105 c 252.863 552.105 256.766 554.105 256.562 555.504 c h
275.562 558.605 m 277.766 559.305 279.266 560.305 279.266 561.305 c 279.266
 563.605 275.363 569.605 270.465 574.805 c 265.062 580.504 262.562 586.406
 265.562 586.406 c 266.266 586.406 267.266 584.906 267.766 583.105 c 268.465
 580.906 269.363 579.906 270.766 579.906 c 274.664 579.906 273.363 589.207
 269.062 591.504 c 266.266 593.004 261.465 591.605 259.664 588.906 c 257.062
 584.906 260.164 577.707 267.965 569.406 c 272.062 565.105 272.363 561.406
 268.766 561.406 c 266.766 561.406 266.266 560.906 266.266 558.906 c 266.266
 556.105 267.062 556.105 275.562 558.605 c h
357.062 570.605 m 357.766 575.707 358.266 581.406 358.266 583.207 c 358.266
 585.805 358.766 586.707 360.266 587.105 c 361.363 587.406 362.266 588.504
 362.266 589.504 c 362.266 590.504 361.363 591.805 360.266 592.406 c 359.164
 593.004 358.266 594.105 358.266 594.906 c 358.266 596.605 354.664 596.906
 353.766 595.305 c 352.766 593.805 350.863 564.805 351.562 563.004 c 351.965
 562.105 353.062 561.406 354.062 561.406 c 355.562 561.406 356.062 562.805
 357.062 570.605 c h
343.062 564.207 m 345.164 566.305 347.266 579.406 347.266 589.707 c 347.266
 595.305 347.164 595.504 343.664 597.105 c 340.465 598.707 339.863 598.707
 337.465 597.305 c 335.266 596.105 334.562 594.707 333.664 589.406 c 332.965
 585.805 332.465 579.004 332.363 574.305 c 332.266 565.305 332.766 564.105
 336.766 563.105 c 340.363 562.207 341.266 562.406 343.062 564.207 c h
343.062 564.207 m f
348.062 46.707 m 347.562 47.707 347.363 52.504 347.363 57.207 c 347.465
 65.605 347.562 65.707 348.465 61.004 c 349.465 55.305 349.164 43.906 348.062
 46.707 c h
348.062 46.707 m f
320.465 53.605 m 319.664 54.406 319.266 59.305 319.266 69.004 c 319.266
 81.004 319.562 83.504 320.965 84.906 c 322.863 86.805 328.965 86.406 330.465
 84.207 c 330.965 83.504 331.164 76.504 331.062 68.605 c 330.766 53.004 
330.562 52.406 324.766 52.406 c 323.062 52.406 321.164 52.906 320.465 53.605
 c h
327.062 69.605 m 326.766 80.605 326.465 82.906 325.266 82.906 c 324.062
 82.906 323.766 80.605 323.465 69.605 c 323.266 56.906 323.266 56.406 325.266
 56.406 c 327.266 56.406 327.266 56.906 327.062 69.605 c h
327.062 69.605 m f
358.363 56.105 m 357.062 57.305 356.266 59.305 356.062 61.906 c 355.766
 65.305 356.062 65.906 357.766 65.906 c 359.266 65.906 359.863 65.105 360.062
 62.707 c 360.363 59.605 362.664 57.605 363.766 59.504 c 364.965 61.406 
363.164 68.406 361.164 69.406 c 358.965 70.605 358.664 72.707 360.562 74.305
 c 361.664 75.207 361.766 76.305 360.766 80.105 c 360.062 82.707 359.062
 85.004 358.465 85.207 c 356.863 85.707 355.965 81.707 357.266 79.406 c 
358.164 77.707 357.965 77.207 356.062 76.504 c 353.965 75.707 353.664 76.004
 352.965 79.105 c 351.863 84.406 353.863 87.805 358.363 88.207 c 363.562
 88.605 365.664 85.207 364.965 77.207 c 364.562 73.105 364.863 71.207 365.664
 70.605 c 366.965 69.906 368.465 63.805 368.363 59.906 c 368.363 57.605 
364.863 54.406 362.266 54.406 c 361.266 54.406 359.562 55.207 358.363 56.105
 c h
358.363 56.105 m f
373.266 59.605 m 370.562 62.605 370.465 68.406 373.266 68.406 c 374.664
 68.406 375.363 67.504 375.863 64.906 c 376.266 62.906 377.062 61.406 377.863
 61.406 c 381.863 61.406 379.664 68.605 373.266 76.906 c 368.863 82.605 
366.562 88.105 367.863 89.406 c 368.363 89.906 371.465 90.605 374.664 91.004
 c 379.465 91.605 380.465 91.406 380.062 90.305 c 379.863 89.605 378.164
 88.504 376.465 88.004 c 372.363 86.906 372.465 85.305 376.863 79.105 c 
382.465 71.406 384.266 67.605 384.266 63.906 c 384.266 58.004 377.363 55.207
 373.266 59.605 c h
373.266 59.605 m f
346.062 68.406 m 345.664 69.805 345.266 74.504 345.363 78.906 c 345.363
 85.105 345.562 86.406 346.363 84.504 c 346.863 83.105 347.164 78.406 347.062
 74.004 c 346.863 68.504 346.562 66.707 346.062 68.406 c h
346.062 68.406 m f
231.664 69.906 m 229.863 71.707 229.363 73.004 229.766 74.207 c 230.164
 75.105 230.766 76.906 230.965 78.105 c 231.266 79.504 232.266 80.406 233.363
 80.406 c 235.863 80.406 236.465 79.004 235.164 76.004 c 234.562 74.707 
234.266 72.805 234.664 71.906 c 235.562 69.406 237.664 71.406 239.266 76.406
 c 240.266 79.504 240.266 80.605 239.363 81.805 c 237.965 83.504 238.664
 85.406 240.664 85.406 c 241.863 85.406 242.766 86.906 245.164 92.707 c 
246.562 96.305 246.562 96.406 244.363 96.406 c 243.062 96.406 241.965 95.305
 241.164 92.906 c 240.266 90.605 239.266 89.406 238.266 89.605 c 235.965
 90.105 235.965 93.504 238.266 97.105 c 239.863 99.805 240.863 100.406 243.664
 100.406 c 245.465 100.406 247.562 99.707 248.266 98.906 c 250.863 95.707
 248.465 84.906 244.965 83.805 c 243.562 83.406 243.266 82.605 243.766 80.707
 c 244.465 77.805 242.766 71.707 240.465 69.105 c 238.266 66.707 234.562
 67.004 231.664 69.906 c h
231.664 69.906 m f
286.266 60.805 m 286.266 63.105 288.465 68.406 289.363 68.406 c 290.562
 68.406 290.465 65.207 289.266 62.004 c 288.266 59.305 286.266 58.504 286.266
 60.805 c h
286.266 60.805 m f
289.766 78.605 m 290.562 84.605 290.664 84.906 292.164 83.906 c 292.766
 83.605 293.062 82.207 292.766 80.805 c 292.465 79.504 292.062 77.305 291.766
 75.906 c 291.465 74.504 290.766 73.406 290.164 73.406 c 289.465 73.406 
289.266 75.105 289.766 78.605 c h
289.766 78.605 m f
447.965 84.504 m 447.062 85.004 445.766 85.207 445.266 84.906 c 443.863
 84.004 442.766 87.305 444.062 88.605 c 444.766 89.305 444.465 90.707 443.062
 93.305 c 435.465 106.707 433.164 111.707 434.465 112.504 c 436.465 113.805
 436.766 113.707 438.965 109.605 c 440.062 107.605 443.562 101.504 446.664
 96.004 c 449.766 90.605 452.266 85.504 452.266 84.805 c 452.266 83.207 
450.465 83.004 447.965 84.504 c h
447.965 84.504 m f
457.562 90.605 m 456.965 91.305 455.164 94.605 453.363 97.805 c 449.664
 104.605 449.562 108.707 453.062 109.207 c 455.664 109.605 455.664 109.707
 453.664 114.004 c 452.562 116.305 451.465 117.406 450.363 117.105 c 449.465
 116.906 448.965 116.105 449.164 115.305 c 450.465 110.605 450.465 109.406
 449.062 109.406 c 446.766 109.406 445.266 111.605 445.266 115.004 c 445.266
 118.406 446.664 120.105 449.766 120.406 c 455.164 121.004 455.062 121.105
 464.164 104.305 c 466.363 100.105 468.266 95.906 468.266 95.105 c 468.266
 91.004 459.965 87.504 457.562 90.605 c h
463.266 95.406 m 463.266 96.504 462.062 99.305 460.664 101.707 c 457.266
 107.105 457.664 106.707 455.766 106.004 c 454.062 105.406 454.363 104.504
 458.965 97.105 c 461.562 93.004 463.266 92.305 463.266 95.406 c h
463.266 95.406 m f
159.465 108.305 m 156.562 110.805 156.562 115.406 159.562 118.207 c 163.965
 122.305 166.664 120.207 163.062 115.406 c 161.164 112.707 161.062 112.207
 162.266 111.406 c 165.062 109.504 170.266 119.305 170.266 126.406 c 170.266
 127.504 170.664 129.207 171.164 130.207 c 171.664 131.105 172.562 133.105
 173.266 134.605 c 175.164 138.605 176.363 138.504 181.266 134.305 c 184.766
 131.305 185.465 130.207 184.562 129.305 c 183.562 128.305 182.863 128.406
 181.363 129.805 c 177.664 133.207 176.062 131.605 173.766 122.406 c 171.363
 112.805 170.164 110.207 167.062 108.004 c 164.164 105.906 162.062 106.004
 159.465 108.305 c h
159.465 108.305 m f
148.164 118.605 m 148.062 119.305 148.062 120.504 148.164 121.207 c 148.266
 122.004 147.863 123.207 147.164 124.105 c 146.164 125.305 146.164 125.707
 147.266 126.406 c 148.062 126.906 149.164 126.906 149.863 126.305 c 150.664
 125.605 152.062 126.605 154.363 129.605 c 156.164 132.004 159.062 135.504
 160.766 137.504 c 162.363 139.504 164.562 142.105 165.562 143.406 c 167.266
 145.406 167.562 145.504 168.965 144.105 c 170.363 142.707 170.363 142.305
 168.164 139.605 c 166.863 138.004 164.465 135.004 162.766 132.906 c 161.164
 130.707 157.863 126.805 155.562 124.004 c 153.164 121.305 151.266 118.707
 151.266 118.207 c 151.266 116.906 148.266 117.305 148.164 118.605 c h
148.164 118.605 m f
341.965 116.105 m 341.562 119.906 341.664 124.207 342.164 125.906 c 342.863
 128.207 343.062 126.605 343.164 119.105 c 343.266 113.805 343.062 109.406
 342.863 109.406 c 342.664 109.406 342.266 112.406 341.965 116.105 c h
341.965 116.105 m f
319.266 125.105 m 313.766 132.105 322.664 141.004 330.062 135.805 c 332.965
 133.805 333.164 126.504 330.465 124.105 c 327.465 121.406 321.766 121.906
 319.266 125.105 c h
319.266 125.105 m f
340.664 140.906 m 340.664 146.906 340.766 149.305 340.965 146.105 c 341.164
 142.906 341.164 138.004 340.965 135.105 c 340.766 132.207 340.664 134.805
 340.664 140.906 c h
340.664 140.906 m f
484.562 124.805 m 482.266 126.406 481.664 127.406 482.266 128.406 c 482.863
 129.406 483.465 129.504 483.965 128.906 c 484.465 128.305 485.863 126.707
 487.164 125.105 c 490.062 121.805 488.965 121.707 484.562 124.805 c h
484.562 124.805 m f
516.562 140.004 m 514.766 141.406 513.266 143.105 513.266 143.906 c 513.266
 146.105 515.562 146.207 518.164 144.305 c 520.465 142.504 523.266 141.805
 523.266 143.004 c 523.266 146.504 518.266 149.504 509.266 151.406 c 506.266
 152.105 502.062 153.707 499.965 155.004 c 496.164 157.504 l 499.863 161.906
 l 503.465 166.305 506.266 167.707 506.266 165.105 c 506.266 164.305 505.363
 162.906 504.363 162.004 c 501.664 159.504 502.664 157.906 507.562 156.406
 c 509.863 155.805 512.766 154.805 514.062 154.305 c 515.363 153.805 517.164
 153.406 518.266 153.406 c 519.266 153.406 521.766 151.906 523.664 150.004
 c 528.062 145.906 528.363 142.406 524.664 139.504 c 521.266 136.805 520.465
 136.906 516.562 140.004 c h
516.562 140.004 m f
528.164 152.105 m 528.062 152.504 528.164 153.707 528.266 154.707 c 528.363
 156.504 525.164 159.906 515.062 168.406 c 510.965 171.906 509.766 173.504
 510.562 174.305 c 512.664 176.406 513.664 175.805 525.863 164.805 c 529.766
 161.305 533.965 157.605 535.266 156.605 c 538.062 154.305 537.266 152.504
 533.363 152.605 c 531.863 152.707 530.062 152.406 529.363 152.004 c 528.766
 151.605 528.164 151.605 528.164 152.105 c h
528.164 152.105 m f
128.266 141.906 m 128.266 142.707 134.465 148.406 135.363 148.406 c 136.965
 148.406 136.266 146.805 133.465 144.105 c 130.965 141.707 128.266 140.605
 128.266 141.906 c h
128.266 141.906 m f
139.965 152.004 m 139.664 152.406 140.965 154.207 143.062 156.004 c 145.562
 158.207 147.062 159.004 147.766 158.305 c 148.465 157.605 147.664 156.305
 145.266 154.305 c 141.664 151.305 140.965 151.004 139.965 152.004 c h
139.965 152.004 m f
92.863 182.605 m 90.766 185.906 89.863 188.105 90.562 188.605 c 92.164 
189.605 93.863 188.605 95.266 185.805 c 95.965 184.504 97.062 183.406 97.664
 183.406 c 98.266 183.406 102.965 187.906 108.164 193.406 c 113.363 198.906
 118.164 203.406 118.766 203.406 c 119.465 203.406 120.363 202.707 120.664
 201.805 c 121.164 200.605 118.062 196.906 110.062 188.805 c 103.965 182.504
 98.266 177.406 97.562 177.406 c 96.863 177.406 94.766 179.805 92.863 182.605
 c h
92.863 182.605 m f
566.266 212.707 m 563.863 213.504 562.766 214.504 562.766 215.906 c 562.766
 218.004 563.062 218.004 569.562 216.707 c 572.363 216.207 573.164 217.406
 571.062 219.105 c 567.863 221.605 563.465 222.207 556.062 221.105 c 550.062
 220.305 547.965 220.305 545.062 221.504 c 541.562 222.906 l 543.562 228.207
 l 544.965 232.004 546.062 233.406 547.164 233.105 c 548.062 232.906 548.562
 232.105 548.363 231.305 c 546.664 225.004 545.965 225.406 558.266 225.406
 c 567.965 225.406 569.863 225.105 572.363 223.305 c 575.863 220.805 576.266
 216.406 573.266 213.406 c 570.965 211.105 570.965 211.105 566.266 212.707
 c h
566.266 212.707 m f
569.863 228.504 m 566.062 230.105 562.664 231.605 562.465 231.906 c 562.164
 232.105 562.766 233.504 563.766 235.004 c 565.766 238.207 564.965 239.305
 558.766 241.605 c 552.164 244.105 549.363 241.504 555.766 238.805 c 558.062
 237.906 559.266 236.707 559.266 235.406 c 559.266 233.004 558.562 232.906
 554.062 234.805 c 549.465 236.707 547.863 238.805 548.664 241.805 c 549.863
 246.707 554.562 248.805 559.062 246.504 c 559.965 246.004 562.863 244.605
 565.562 243.406 c 570.164 241.305 571.766 238.406 569.266 236.906 c 567.266
 235.707 568.363 233.605 571.363 232.504 c 575.766 231.004 577.266 231.105
 577.965 233.105 c 578.965 236.004 580.363 237.305 581.766 236.805 c 582.766
 236.406 582.863 235.707 582.266 234.605 c 581.863 233.605 580.664 231.207
 579.766 229.105 c 578.863 227.105 577.863 225.406 577.465 225.504 c 577.062
 225.504 573.664 226.906 569.863 228.504 c h
569.863 228.504 m f
78.266 217.406 m 78.266 218.406 88.465 223.406 90.363 223.406 c 90.863 
223.406 91.266 222.707 91.266 221.906 c 91.266 221.105 90.664 220.406 89.965
 220.406 c 89.266 220.406 86.766 219.504 84.465 218.406 c 79.863 216.207
 78.266 215.906 78.266 217.406 c h
78.266 217.406 m f
95.863 225.004 m 95.562 225.906 95.266 226.605 95.266 226.707 c 95.266 
226.805 96.863 227.004 98.766 227.105 c 102.863 227.406 103.363 225.805 
99.664 224.406 c 96.465 223.105 96.562 223.105 95.863 225.004 c h
95.863 225.004 m f
61.363 258.105 m 59.164 260.805 59.266 263.805 61.664 266.004 c 63.562 
267.906 71.363 269.406 73.465 268.305 c 74.766 267.605 75.766 267.805 77.363
 269.207 c 79.465 271.207 87.863 272.906 90.562 271.805 c 93.164 270.805
 94.562 265.504 92.766 262.805 c 90.965 259.906 81.465 257.707 78.266 259.406
 c 76.863 260.207 76.266 260.207 76.266 259.406 c 76.266 257.906 70.062 
255.406 66.363 255.406 c 64.363 255.406 62.766 256.305 61.363 258.105 c 
h
73.062 261.605 m 75.062 263.305 74.465 264.406 71.266 264.406 c 66.266 
264.406 61.164 261.305 64.465 260.207 c 66.164 259.605 71.562 260.504 73.062
 261.605 c h
86.562 264.105 m 88.465 264.504 89.266 265.207 89.266 266.605 c 89.266 
268.305 88.863 268.504 86.562 268.004 c 84.965 267.605 82.562 267.004 81.062
 266.707 c 78.363 266.207 77.465 264.504 78.965 263.004 c 79.363 262.605
 80.664 262.605 81.766 262.906 c 82.863 263.305 84.965 263.805 86.562 264.105
 c h
86.562 264.105 m f
57.965 274.105 m 57.164 275.406 60.465 282.305 61.863 282.406 c 62.562 
282.406 63.363 281.707 63.664 280.805 c 64.465 278.805 68.562 279.305 84.363
 283.504 c 87.664 284.305 88.766 284.305 89.363 283.207 c 90.766 281.004
 89.766 279.906 85.664 279.105 c 83.562 278.707 79.863 277.906 77.562 277.406
 c 75.164 276.805 71.363 276.004 69.062 275.504 c 66.664 275.004 63.363 
274.305 61.664 273.906 c 59.965 273.504 58.266 273.605 57.965 274.105 c 
h
57.965 274.105 m f
565.562 301.105 m 563.863 302.207 563.266 303.605 563.266 306.305 c 563.266
 311.305 564.664 312.406 571.266 312.406 c 575.664 312.406 577.363 311.906
 578.664 310.504 c 580.465 308.504 580.465 308.504 582.562 310.406 c 584.164
 312.004 585.465 312.207 588.664 311.805 c 596.465 310.605 598.562 307.906
 596.266 302.004 c 595.465 299.707 594.766 299.406 590.266 299.406 c 585.965
 299.406 585.266 299.707 585.266 301.406 c 585.266 303.105 585.965 303.406
 589.363 303.406 c 592.664 303.406 593.363 303.707 593.062 305.105 c 592.562
 307.707 584.766 308.105 582.164 305.805 c 580.465 304.305 580.062 304.207
 578.562 305.605 c 576.266 307.605 570.965 308.805 568.266 307.906 c 565.062
 306.906 566.465 305.004 570.863 304.406 c 573.965 304.004 574.863 303.406
 575.062 301.605 c 575.363 299.605 574.965 299.406 571.562 299.504 c 569.465
 299.504 566.766 300.207 565.562 301.105 c h
565.562 301.105 m f
572.266 318.906 m 572.266 323.406 l 568.164 323.406 l 564.863 323.406 564.164
 323.707 564.465 325.105 c 564.664 326.305 566.062 327.105 568.766 327.504
 c 570.965 327.805 573.266 328.207 573.766 328.406 c 574.363 328.605 576.062
 328.207 577.562 327.605 c 579.164 326.906 584.164 326.406 588.863 326.406
 c 597.266 326.406 l 597.266 319.707 l 586.562 317.105 l 571.965 313.504
 572.266 313.406 572.266 318.906 c h
587.766 320.805 m 589.465 321.707 589.062 322.004 584.562 322.805 c 578.465
 323.805 576.266 323.207 576.266 320.504 c 576.266 318.605 576.766 318.504
 581.062 319.105 c 583.664 319.406 586.664 320.207 587.766 320.805 c h
587.766 320.805 m f
80.062 349.906 m 79.863 350.207 74.965 350.906 69.164 351.504 c 63.465 
352.004 57.766 353.207 56.562 354.004 c 53.562 355.906 53.465 361.305 56.266
 363.906 c 58.062 365.504 58.863 365.605 66.965 364.305 c 75.766 362.906
 l 76.062 358.605 l 76.363 354.406 76.363 354.406 80.363 354.406 c 83.164
 354.406 84.266 354.805 84.266 355.906 c 84.266 356.805 83.664 357.605 83.062
 357.805 c 78.766 359.105 78.363 359.406 78.863 360.906 c 79.664 362.906
 83.164 362.805 86.164 360.805 c 88.062 359.406 88.363 358.504 87.965 355.707
 c 87.562 353.805 86.562 351.605 85.562 350.805 c 83.766 349.504 80.965 
349.004 80.062 349.906 c h
72.266 357.805 m 72.266 359.504 69.164 360.406 62.562 360.406 c 57.164 
360.406 55.863 359.305 59.062 357.504 c 61.766 355.906 72.266 356.105 72.266
 357.805 c h
72.266 357.805 m f
566.363 355.305 m 564.766 356.305 570.164 358.406 574.363 358.406 c 577.965
 358.406 578.164 356.605 574.766 355.906 c 573.363 355.605 571.266 355.207
 569.965 354.906 c 568.766 354.707 567.164 354.906 566.363 355.305 c h
566.363 355.305 m f
581.863 357.207 m 581.062 358.605 581.863 359.004 587.062 359.906 c 589.766
 360.305 591.266 360.207 591.266 359.504 c 591.266 358.207 590.363 357.707
 586.164 356.906 c 583.965 356.504 582.266 356.605 581.863 357.207 c h
581.863 357.207 m f
556.766 384.707 m 554.164 391.004 553.863 393.406 555.766 393.406 c 556.664
 393.406 557.965 392.105 558.562 390.406 c 559.164 388.707 560.266 387.406
 560.863 387.406 c 561.465 387.406 565.164 390.305 569.164 393.805 c 575.562
 399.504 579.164 401.406 583.863 401.406 c 587.766 401.406 589.965 393.004
 586.766 390.406 c 585.863 389.707 583.562 389.105 581.465 389.004 c 576.766
 388.906 576.363 391.504 580.965 392.805 c 584.562 393.906 586.062 396.207
 583.766 397.004 c 581.363 397.906 576.164 394.906 571.266 389.906 c 567.465
 385.906 560.766 381.406 558.766 381.406 c 558.465 381.406 557.562 382.906
 556.766 384.707 c h
556.766 384.707 m f
552.266 399.707 m 552.266 401.805 554.164 403.305 564.766 409.707 c 571.664
 413.906 578.062 417.504 579.062 417.805 c 581.363 418.605 583.062 415.305
 583.965 408.605 c 584.465 405.105 584.266 404.207 583.266 404.605 c 582.465
 404.805 581.363 406.504 580.766 408.406 c 580.164 410.305 579.164 411.906
 578.465 412.207 c 577.863 412.406 574.363 410.504 570.562 408.105 c 566.863
 405.707 561.164 402.207 558.062 400.504 c 552.266 397.305 l h
552.266 399.707 m f
101.766 423.805 m 100.164 424.504 98.062 424.906 97.062 424.605 c 96.164
 424.406 94.965 425.105 94.363 426.207 c 93.766 427.305 89.465 430.004 84.766
 432.406 c 79.465 434.906 76.363 437.004 76.664 437.707 c 76.965 438.406
 77.562 439.707 77.863 440.707 c 78.465 442.207 79.266 442.406 83.164 441.805
 c 85.664 441.406 88.766 440.707 90.062 440.305 c 91.363 439.805 93.664 
439.406 95.266 439.406 c 98.562 439.406 103.266 437.504 103.266 436.207 
c 103.266 435.707 102.562 434.004 101.766 432.406 c 100.363 429.805 100.465
 429.504 102.766 428.004 c 104.062 427.105 105.664 426.406 106.266 426.406
 c 106.766 426.406 107.266 425.504 107.266 424.406 c 107.266 422.105 105.965
 422.004 101.766 423.805 c h
98.562 433.305 m 98.863 434.406 98.465 435.504 97.766 435.707 c 95.465 
436.605 85.266 437.605 85.266 437.004 c 85.266 436.207 95.164 431.504 96.863
 431.504 c 97.562 431.406 98.266 432.305 98.562 433.305 c h
98.562 433.305 m f
99.465 445.605 m 83.266 453.805 82.062 455.305 90.562 456.805 c 93.965 
457.406 94.266 457.305 94.266 455.207 c 94.363 453.305 96.164 452.004 105.266
 447.406 c 111.363 444.406 116.266 441.605 116.266 441.305 c 116.266 440.906
 115.664 440.207 114.965 439.605 c 113.965 438.707 110.164 440.207 99.465
 445.605 c h
99.465 445.605 m f
521.965 460.207 m 519.965 462.406 519.766 465.406 521.562 467.605 c 524.164
 470.805 530.062 474.406 531.664 473.805 c 532.664 473.406 533.266 473.707
 533.266 474.707 c 533.266 477.105 541.562 483.406 544.664 483.406 c 548.266
 483.406 551.664 478.105 550.062 475.004 c 548.766 472.504 545.266 469.504
 543.465 469.406 c 540.965 469.406 541.062 472.406 543.664 474.504 c 546.062
 476.406 547.266 479.406 545.465 479.406 c 545.062 479.406 543.062 478.305
 540.965 476.906 c 538.363 475.105 537.266 473.605 537.266 471.906 c 537.266
 469.707 536.863 469.406 533.664 469.406 c 531.766 469.406 529.465 468.707
 528.664 467.906 c 527.863 467.105 526.465 466.004 525.562 465.504 c 524.562
 465.004 524.164 464.004 524.664 462.906 c 525.266 461.305 525.465 461.305
 527.562 462.805 c 531.266 465.504 532.363 465.707 533.965 464.207 c 535.266
 462.805 535.062 462.406 532.465 460.504 c 528.766 457.906 524.164 457.805
 521.965 460.207 c h
521.965 460.207 m f
513.465 472.105 m 509.965 475.207 509.766 478.105 512.965 481.207 c 516.266
 484.305 518.965 486.305 522.164 488.207 c 524.164 489.305 524.766 489.305
 526.363 487.805 c 527.363 486.906 528.266 485.504 528.266 484.707 c 528.266
 483.105 530.164 484.004 534.766 487.805 c 538.965 491.305 537.062 493.105
 532.062 490.406 c 528.562 488.605 528.266 488.605 527.363 490.105 c 526.664
 491.504 527.164 492.305 529.863 494.207 c 534.062 497.004 536.965 496.805
 539.562 493.207 c 541.266 490.906 541.465 490.004 540.465 488.004 c 539.164
 485.105 519.766 470.406 517.164 470.406 c 516.266 470.406 514.562 471.207
 513.465 472.105 c h
521.465 477.605 m 524.062 479.406 526.266 481.504 526.266 482.105 c 526.266
 483.805 522.766 483.805 521.062 482.105 c 520.363 481.406 518.562 480.004
 517.062 479.004 c 515.465 478.004 514.562 476.707 514.965 475.805 c 515.664
 473.906 515.965 474.004 521.465 477.605 c h
521.465 477.605 m f
119.766 465.105 m 117.562 466.707 115.164 468.504 114.465 469.207 c 113.664
 469.805 111.164 471.805 108.664 473.504 c 104.465 476.406 103.062 478.406
 105.363 478.406 c 106.965 478.406 125.266 464.605 125.266 463.406 c 125.266
 461.805 123.965 462.207 119.766 465.105 c h
119.766 465.105 m f
145.164 506.504 m 139.465 512.605 134.664 518.207 134.465 519.004 c 134.164
 520.105 135.363 520.406 139.164 520.406 c 144.363 520.406 145.266 519.805
 143.062 517.605 c 142.062 516.605 143.766 514.504 150.664 507.504 c 156.863
 501.305 159.363 498.105 158.965 497.004 c 158.562 496.105 157.766 495.406
 156.965 495.406 c 156.266 495.406 150.965 500.406 145.164 506.504 c h
145.164 506.504 m f
464.363 519.504 m 461.766 522.004 462.062 524.504 465.562 530.004 c 466.965
 532.207 468.562 533.406 470.062 533.406 c 471.766 533.406 472.266 534.004
 472.266 536.004 c 472.266 539.105 473.766 542.105 477.062 545.605 c 480.164
 548.906 481.164 549.004 484.664 546.305 c 487.863 543.805 488.062 540.305
 485.164 536.207 c 483.266 533.605 482.863 533.406 481.465 534.707 c 480.164
 536.105 480.266 536.605 482.164 539.305 c 484.266 542.207 484.266 542.504
 482.664 543.105 c 480.266 544.004 476.465 539.004 476.062 534.504 c 475.863
 532.004 475.266 531.004 473.863 530.805 c 471.266 530.406 467.363 525.504
 467.266 522.504 c 467.266 520.406 467.465 520.305 468.965 521.504 c 469.965
 522.305 471.465 523.805 472.363 524.805 c 474.363 527.207 477.562 526.305
 476.562 523.707 c 474.266 517.707 468.465 515.707 464.363 519.504 c h
464.363 519.504 m f
450.863 528.605 m 449.965 529.805 449.266 531.504 449.266 532.406 c 449.266
 534.605 463.465 555.105 465.965 556.504 c 467.766 557.504 468.664 557.305
 471.164 555.504 c 473.164 554.004 474.266 552.406 474.266 550.805 c 474.266
 548.605 465.766 534.406 464.062 533.605 c 463.562 533.406 463.266 532.707
 463.266 532.004 c 463.266 531.305 462.266 529.805 460.965 528.605 c 457.863
 525.707 452.863 525.707 450.863 528.605 c h
461.562 537.105 m 469.863 549.105 471.863 553.605 467.965 552.105 c 465.965
 551.406 454.266 533.605 454.266 531.305 c 454.266 527.906 455.965 529.305
 461.562 537.105 c h
461.562 537.105 m f
214.062 539.504 m 212.266 540.504 207.266 550.305 207.266 552.805 c 207.266
 555.605 208.465 557.406 210.266 557.406 c 213.062 557.406 213.266 558.504
 211.164 562.805 c 208.863 567.605 208.863 567.605 206.965 566.906 c 205.664
 566.305 205.664 565.906 206.863 563.605 c 208.863 559.707 208.664 557.406
 206.266 557.406 c 203.465 557.406 200.766 564.004 202.164 567.207 c 203.562
 570.207 207.965 571.906 210.965 570.504 c 212.664 569.707 218.266 560.105
 218.266 557.906 c 218.266 557.605 219.363 555.105 220.766 552.207 c 223.465
 546.504 223.965 542.207 222.062 540.707 c 219.965 539.004 215.863 538.406
 214.062 539.504 c h
218.562 545.004 m 218.164 548.605 215.266 554.406 213.766 554.406 c 211.664
 554.406 211.863 551.207 214.465 546.504 c 216.664 542.305 218.965 541.504
 218.562 545.004 c h
218.562 545.004 m f
228.965 550.605 m 227.664 553.504 225.562 558.105 224.266 560.906 c 223.062
 563.605 221.164 567.805 219.965 570.207 c 218.363 573.504 218.164 574.707
 219.164 575.707 c 220.062 576.605 220.766 576.605 222.266 575.605 c 223.363
 575.004 224.965 574.406 225.766 574.406 c 227.465 574.406 227.766 572.305
 226.164 570.707 c 225.465 570.004 226.363 567.105 229.266 560.805 c 235.363
 547.906 235.562 547.207 234.062 546.207 c 231.965 544.906 231.562 545.207
 228.965 550.605 c h
228.965 550.605 m f
392.266 554.605 m 387.965 555.805 387.164 556.504 388.164 558.305 c 388.863
 559.305 389.465 559.305 391.062 558.504 c 395.766 556.004 396.062 557.805
 393.664 574.305 c 392.266 583.707 397.062 589.707 403.164 586.305 c 407.363
 583.906 407.363 574.406 403.164 574.406 c 401.164 574.406 401.062 574.805
 401.766 579.004 c 402.363 583.004 402.164 583.504 400.664 583.207 c 397.664
 582.707 396.863 576.906 398.766 569.004 c 399.664 565.105 400.266 560.105
 400.062 557.906 c 399.766 553.406 398.363 552.805 392.266 554.605 c h
392.266 554.605 m f
375.465 559.004 m 373.863 560.105 373.266 561.504 373.266 564.406 c 373.266
 566.504 373.766 568.605 374.266 568.906 c 374.863 569.207 375.266 570.406
 375.266 571.504 c 375.266 572.605 375.965 573.707 376.766 574.004 c 377.965
 574.504 378.164 575.504 377.664 578.105 c 376.863 582.406 379.664 590.406
 382.062 590.504 c 385.465 590.707 388.766 590.207 390.062 589.207 c 392.664
 587.004 390.863 578.406 387.664 578.406 c 386.465 578.406 386.164 579.305
 386.363 582.406 c 386.766 587.004 385.965 588.207 383.766 586.406 c 381.965
 584.906 381.664 576.906 383.363 575.805 c 384.062 575.406 383.266 574.105
 381.363 572.305 c 379.562 570.707 378.164 568.406 378.164 567.004 c 378.062
 565.605 377.965 563.906 377.863 563.207 c 377.562 560.305 380.164 561.707
 381.562 565.305 c 382.863 568.406 383.562 569.105 385.164 568.707 c 386.766
 568.305 386.965 567.805 386.164 565.207 c 384.062 557.805 380.266 555.605
 375.465 559.004 c h
375.465 559.004 m f
425.266 547.906 m 425.266 550.105 428.164 555.406 429.266 555.406 c 430.562
 555.406 430.562 553.906 429.363 551.605 c 428.863 550.707 428.164 549.105
 427.863 548.105 c 427.164 546.004 425.266 545.805 425.266 547.906 c h
425.266 547.906 m f
431.266 562.004 m 431.266 563.406 434.562 569.406 435.363 569.406 c 436.562
 569.406 436.465 568.707 435.062 564.707 c 434.363 562.906 433.266 561.406
 432.562 561.406 c 431.863 561.406 431.266 561.707 431.266 562.004 c h
431.266 562.004 m f
298.766 565.805 m 297.562 567.605 297.266 570.207 297.465 575.504 c 297.766
 582.906 l 301.062 583.207 l 303.863 583.504 304.266 583.906 304.164 586.207
 c 304.062 591.207 302.863 592.906 299.266 592.906 c 297.465 592.906 295.766
 593.406 295.562 594.004 c 294.965 595.906 306.562 597.406 307.562 595.605
 c 307.863 595.207 308.266 591.504 308.363 587.406 c 308.766 579.906 l 305.465
 579.805 l 303.664 579.707 301.965 579.406 301.664 579.105 c 301.266 578.805
 301.465 575.906 301.863 572.707 c 302.465 568.605 303.164 566.906 304.266
 566.906 c 305.465 566.906 305.664 567.906 305.465 571.105 c 305.062 575.105
 305.266 575.406 307.664 575.406 c 310.062 575.406 310.266 575.105 310.266
 570.605 c 310.266 564.805 309.062 563.406 304.062 563.406 c 301.164 563.406
 299.965 564.004 298.766 565.805 c h
298.766 565.805 m f
252.766 570.105 m 250.266 576.004 251.465 577.504 254.465 572.207 c 256.465
 568.504 256.766 567.406 255.664 567.004 c 254.766 566.605 253.766 567.707
 252.766 570.105 c h
252.766 570.105 m f
338.164 568.305 m 337.562 570.004 338.965 591.207 339.766 592.406 c 341.363
 595.004 341.766 591.707 340.965 581.207 c 340.164 570.504 339.062 565.504
 338.164 568.305 c h
338.164 568.305 m f
Q Q
showpage
%%Trailer
end
%%EOF
